<?xml version="1.0" encoding="utf-8"?>
<!-- Generator: Adobe Illustrator 19.0.0, SVG Export Plug-In . SVG Version: 6.00 Build 0)  -->
<svg version="1.1" id="Layer_1" xmlns="http://www.w3.org/2000/svg" xmlns:xlink="http://www.w3.org/1999/xlink" x="0px" y="0px"
	 viewBox="-49 141 512 512" style="enable-background:new -49 141 512 512;" xml:space="preserve">
<style type="text/css">
	.st0{fill:#3F95D4;}
	.st1{fill:#367FB4;}
	.st2{fill:#D99666;}
	.st3{fill:#F7CB8B;}
	.st4{fill:#349886;}
	.st5{fill:#9ACCC3;}
	.st6{fill:#E2574C;}
	.st7{fill:#D2AD77;}
	.st8{fill:#2C8172;}
	.st9{fill:#C04A40;}
	.st10{fill:#DDC1A5;}
	.st11{fill:#C2E3EE;}
	.st12{fill:#ADD9E8;}
	.st13{fill:#E3637B;}
	.st14{fill:#D75E74;}
	.st15{fill:#E9CCAE;}
	.st16{fill:#F5D7B7;}
	.st17{fill:#715548;}
	.st18{fill:#8C6958;}
	.st19{fill:#7E5E4F;}
	.st20{fill:#4A5359;}
</style>
<g>
	<path class="st0" d="M274.9,408h35c4.8,0,8.8,3.9,8.8,8.8v175c0,4.8-3.9,8.8-8.8,8.8h-35c-4.8,0-8.8-3.9-8.8-8.8v-175
		C266.1,411.9,270,408,274.9,408z"/>
	<path class="st1" d="M283.6,591.8v-175c0-4.8,3.9-8.8,8.8-8.8h-17.5c-4.8,0-8.8,3.9-8.8,8.8v175c0,4.8,3.9,8.8,8.8,8.8h17.5
		C287.5,600.5,283.6,596.6,283.6,591.8z"/>
	<path class="st2" d="M222.4,600.5H463V653H222.4V600.5z"/>
	<path class="st3" d="M266.1,539.3h52.5v35h-52.5V539.3z"/>
	<path class="st4" d="M327.4,373h52.5c4.8,0,8.8,3.9,8.8,8.8v210c0,4.8-3.9,8.8-8.8,8.8h-52.5c-4.8,0-8.8-3.9-8.8-8.8v-210
		C318.6,376.9,322.5,373,327.4,373z"/>
	<path class="st5" d="M344.9,565.5h17.5V443h-17.5C344.9,443,344.9,565.5,344.9,565.5z M344.9,408v17.5h17.5V408H344.9z"/>
	<path class="st6" d="M397.4,425.5h52.5c4.8,0,8.8,3.9,8.8,8.8v157.5c0,4.8-3.9,8.8-8.8,8.8h-52.5c-4.8,0-8.8-3.9-8.8-8.8V434.3
		C388.6,429.4,392.5,425.5,397.4,425.5z"/>
	<rect x="266.1" y="539.3" class="st7" width="17.5" height="35"/>
	<path class="st8" d="M336.1,591.8v-210c0-4.8,3.9-8.8,8.8-8.8h-17.5c-4.8,0-8.8,3.9-8.8,8.8v210c0,4.8,3.9,8.8,8.8,8.8h17.5
		C340,600.5,336.1,596.6,336.1,591.8z"/>
	<path class="st9" d="M406.1,591.8V434.3c0-4.8,3.9-8.8,8.8-8.8h-17.5c-4.8,0-8.8,3.9-8.8,8.8v157.5c0,4.8,3.9,8.8,8.8,8.8h17.5
		C410,600.5,406.1,596.6,406.1,591.8z"/>
	<path class="st3" d="M388.6,513h70v-35h-70V513z M388.6,460.5v8.8h70v-8.8H388.6z"/>
	<g>
		<rect x="388.6" y="460.5" class="st7" width="17.5" height="8.8"/>
		<rect x="388.6" y="478" class="st7" width="17.5" height="35"/>
	</g>
</g>
<path class="st10" d="M354,351.4c0,19.2-15.5,34.7-34.7,34.7c-19.2,0-34.7-15.5-34.7-34.7s15.5-34.7,34.7-34.7
	C338.5,316.7,354,332.3,354,351.4z"/>
<path class="st10" d="M20.4,351.4c0,19.2-15.5,34.7-34.7,34.7c-19.2,0-34.7-15.5-34.7-34.7s15.5-34.7,34.7-34.7
	C4.9,316.7,20.4,332.3,20.4,351.4z"/>
<path class="st11" d="M-10.4,653c0-90,73-162.9,162.9-162.9c90,0,162.9,73,162.9,162.9H-10.4z"/>
<path class="st12" d="M167.8,490.8c-5-0.5-10.1-0.7-15.3-0.7c-90,0-162.9,73-162.9,162.9h30.6C20.2,568.2,85,498.5,167.8,490.8z"/>
<path class="st12" d="M152.5,490.1c-30.4,0-58.9,8.3-83.3,22.9c25.2,12.3,53.4,19.2,83.3,19.2c29.8,0,58.1-6.9,83.3-19.2
	C211.4,498.4,182.9,490.1,152.5,490.1z"/>
<path class="st13" d="M56.8,653h191.3l11.3-122.9c-12.9-11.3-27.7-20.5-43.7-27.3l-11.5,52.4c-2.3,10.4-11.5,17.8-22.1,17.8h-59.3
	c-10.6,0-19.8-7.4-22.1-17.8l-11.5-52.4c-16,6.8-30.8,16-43.7,27.3L56.8,653z"/>
<g>
	<path class="st14" d="M92.5,517.6l-3.3-14.8c-16,6.8-30.8,16-43.7,27.3l2.9,31.4C60.2,544.2,75.1,529.3,92.5,517.6z"/>
	<path class="st14" d="M93.6,522.8l-4.4-20c-6.9,2.9-13.6,6.3-20,10.1C77.1,516.7,85.2,520,93.6,522.8z"/>
	<path class="st14" d="M215.8,502.8l-4.4,20c8.4-2.7,16.5-6,24.4-9.9C229.4,509.1,222.7,505.7,215.8,502.8z"/>
</g>
<path class="st15" d="M194.7,506.5c0,23.3-18.9,42.2-42.2,42.2c-23.3,0-42.2-18.9-42.2-42.2c0-23.3,18.9-42.2,42.2-42.2
	C175.8,464.3,194.7,483.2,194.7,506.5z"/>
<path class="st10" d="M152.5,464.3c-23.3,0-42.2,18.9-42.2,42.2c0,8.1,2.3,15.8,6.3,22.2c11.6,2.2,23.6,3.4,35.8,3.4
	c12.2,0,24.2-1.2,35.8-3.4c4-6.4,6.3-14.1,6.3-22.2C194.7,483.2,175.8,464.3,152.5,464.3z"/>
<path class="st16" d="M327.6,341.7c0,96.7-78.4,175.1-175.1,175.1c-96.7,0-175.1-78.4-175.1-175.1c0-96.7,78.4-175.1,175.1-175.1
	C249.2,166.6,327.6,245,327.6,341.7z"/>
<path class="st16" d="M327.6,341.7c0,96.7-78.4,175.1-175.1,175.1c-96.7,0-175.1-78.4-175.1-175.1c0-96.7,78.4-175.1,175.1-175.1
	C249.2,166.6,327.6,245,327.6,341.7z"/>
<path class="st15" d="M159.1,516.6c0.5,0,0.9,0,1.4-0.1c1.1-0.1,2.2-0.1,3.3-0.2c0.2,0,0.3,0,0.5,0c1.2-0.1,2.4-0.2,3.6-0.3
	C78.4,508.3,8.2,433.2,8.2,341.7c0-13.1,1.4-25.9,4.2-38.2L24,290.6c18.6,21,45.6,33.4,74.2,33.4h108.5c28.6,0,55.6-12.4,74.2-33.4
	l36.9,40.9l5.1,1c1.5,0.3,3,0.8,4.4,1.4c-4.1-93.1-80.8-167.2-174.9-167.2c-96.7,0-175.1,78.4-175.1,175.1
	c0,96.7,78.4,175.1,175.1,175.1c1.4,0,2.7,0,4.1-0.1C157.4,516.7,158.3,516.6,159.1,516.6z"/>
<path class="st17" d="M152.5,151.3C53,151.3-28.9,228-37.2,325.4h0c4.6-4,10.2-6.9,16.4-8l46.2-51.1h254.3l46.2,51.1
	c6.2,1.2,11.8,4,16.4,8h0C333.9,228,252,151.3,152.5,151.3z"/>
<path class="st18" d="M206.8,308.7H98.2c-46.3,0-83.8-37.5-83.8-83.8V141h192.3c46.3,0,83.8,37.5,83.8,83.8
	C290.6,271.1,253.1,308.7,206.8,308.7z"/>
<path class="st19" d="M45.1,224.8V141H14.4v83.8c0,46.3,37.5,83.8,83.8,83.8H129C82.7,308.7,45.1,271.1,45.1,224.8z"/>
<path class="st20" d="M152.5,398.2c-9.8,0-18.9-5.3-23.8-13.8c-2.1-3.6-0.8-8.2,2.8-10.2c3.6-2.1,8.2-0.8,10.2,2.8
	c2.2,3.8,6.3,6.2,10.8,6.2c4.4,0,8.6-2.4,10.8-6.2c2.1-3.6,6.6-4.8,10.2-2.8c3.6,2.1,4.8,6.6,2.8,10.2
	C171.4,392.9,162.3,398.2,152.5,398.2z"/>
<path class="st20" d="M218.1,368c-4.1,0-7.5-3.4-7.5-7.5v-11.7c0-4.1,3.4-7.5,7.5-7.5c4.1,0,7.5,3.4,7.5,7.5v11.7
	C225.6,364.7,222.3,368,218.1,368z"/>
<path class="st20" d="M86.9,368c-4.1,0-7.5-3.4-7.5-7.5v-11.7c0-4.1,3.4-7.5,7.5-7.5c4.1,0,7.5,3.4,7.5,7.5v11.7
	C94.4,364.7,91,368,86.9,368z"/>
<path class="st13" d="M224,390.1h-11.7c-4.1,0-7.5-3.4-7.5-7.5c0-4.1,3.4-7.5,7.5-7.5H224c4.1,0,7.5,3.4,7.5,7.5
	C231.5,386.8,228.1,390.1,224,390.1z"/>
<path class="st13" d="M92.7,390.1H81c-4.1,0-7.5-3.4-7.5-7.5c0-4.1,3.4-7.5,7.5-7.5h11.7c4.1,0,7.5,3.4,7.5,7.5
	C100.2,386.8,96.9,390.1,92.7,390.1z"/>
</svg>
