<?xml version="1.0" encoding="iso-8859-1"?>
<!-- Generator: Adobe Illustrator 19.0.0, SVG Export Plug-In . SVG Version: 6.00 Build 0)  -->
<svg version="1.1" id="Capa_1" xmlns="http://www.w3.org/2000/svg" xmlns:xlink="http://www.w3.org/1999/xlink" x="0px" y="0px"
	 viewBox="0 0 464 464" style="enable-background:new 0 0 464 464;" xml:space="preserve">
<rect y="52" style="fill:#47821B;" width="464" height="256"/>
<rect x="32" y="84" style="fill:#4C8E1E;" width="400" height="192"/>
<path style="fill:#EBE5DD;" d="M376,204h-72h-24c-8.836,0-16,7.163-16,16v24h-24c-8.836,0-16,7.163-16,16c0,8.836,7.164,16,16,16h56
	v8h64v32h16c8.836,0,16-7.164,16-16v-80C392,211.163,384.836,204,376,204z"/>
<rect x="352" y="228" style="fill:#D4C8B8;" width="16" height="88"/>
<path style="fill:#FFB398;" d="M352,204h-48v-32c0-13.255,10.745-24,24-24h0c13.255,0,24,10.745,24,24V204z"/>
<rect x="288" y="228" style="fill:#D4C8B8;" width="16" height="48"/>
<g>
	
		<rect x="180.006" y="165.111" transform="matrix(-0.7071 0.7071 -0.7071 -0.7071 473.6981 235.8347)" style="fill:#693B00;" width="16" height="101.824"/>
	<rect x="320" y="204" style="fill:#693B00;" width="16" height="56"/>
</g>
<polygon style="fill:#A38563;" points="296,284 296,412 320,412 320,308 336,308 336,412 360,412 360,316 360,284 "/>
<polygon style="fill:#806749;" points="320,308 320,412 328,412 336,412 336,308 "/>
<g>
	<rect x="40" y="196" style="fill:#FFFFFF;" width="16" height="16"/>
	<path style="fill:#FFFFFF;" d="M80,276H48c-4.422,0-8-3.582-8-8v-40h16v32h24V276z"/>
	<path style="fill:#FFFFFF;" d="M424,140h-16v-32h-40V92h48c4.422,0,8,3.582,8,8V140z"/>
	<rect x="408" y="164" style="fill:#FFFFFF;" width="16" height="16"/>
</g>
<g>
</g>
<g>
</g>
<g>
</g>
<g>
</g>
<g>
</g>
<g>
</g>
<g>
</g>
<g>
</g>
<g>
</g>
<g>
</g>
<g>
</g>
<g>
</g>
<g>
</g>
<g>
</g>
<g>
</g>
</svg>
