<svg xmlns="http://www.w3.org/2000/svg" height="512pt" version="1.1" viewBox="0 0 512.00003 512" width="512pt">
<g id="surface1">
<path d="M 52.964844 406.070312 L 52.964844 0 C 23.714844 0 0 23.714844 0 52.964844 L 0 459.035156 C 0 429.78125 23.714844 406.070312 52.964844 406.070312 Z M 52.964844 406.070312 " style=" stroke:none;fill-rule:nonzero;fill:rgb(100%,59.607843%,6.666667%);fill-opacity:1;" />
<path d="M 317.792969 141.242188 C 317.792969 121.738281 301.984375 105.929688 282.484375 105.929688 L 247.171875 105.929688 L 247.171875 176.550781 L 282.484375 176.550781 C 301.984375 176.550781 317.792969 160.742188 317.792969 141.242188 Z M 317.792969 141.242188 " style=" stroke:none;fill-rule:nonzero;fill:rgb(100%,65.490196%,20%);fill-opacity:1;" />
<path d="M 317.792969 211.863281 C 317.792969 192.359375 301.984375 176.550781 282.484375 176.550781 L 247.171875 176.550781 L 247.171875 247.171875 L 282.484375 247.171875 C 301.984375 247.171875 317.792969 231.363281 317.792969 211.863281 Z M 317.792969 211.863281 " style=" stroke:none;fill-rule:nonzero;fill:rgb(100%,65.490196%,20%);fill-opacity:1;" />
<path d="M 317.792969 211.863281 C 317.792969 192.359375 301.984375 176.550781 282.484375 176.550781 L 282.484375 247.171875 C 301.984375 247.171875 317.792969 231.363281 317.792969 211.863281 Z M 317.792969 211.863281 " style=" stroke:none;fill-rule:nonzero;fill:rgb(100%,72.54902%,36.078431%);fill-opacity:1;" />
<path d="M 317.792969 141.242188 C 317.792969 121.738281 301.984375 105.929688 282.484375 105.929688 L 282.484375 176.550781 C 301.984375 176.550781 317.792969 160.742188 317.792969 141.242188 Z M 317.792969 141.242188 " style=" stroke:none;fill-rule:nonzero;fill:rgb(100%,72.54902%,36.078431%);fill-opacity:1;" />
<path d="M 88.277344 282.484375 L 282.484375 282.484375 L 282.484375 247.171875 L 247.171875 247.171875 L 247.171875 105.929688 L 282.484375 105.929688 L 282.484375 0 L 52.964844 0 L 52.964844 406.070312 L 282.484375 406.070312 L 282.484375 282.484375 Z M 150.070312 105.929688 L 167.722656 105.929688 L 194.207031 247.171875 L 167.722656 105.929688 L 150.070312 105.929688 L 123.585938 247.171875 Z M 150.070312 105.929688 " style=" stroke:none;fill-rule:nonzero;fill:rgb(100%,65.490196%,20%);fill-opacity:1;" />
<path d="M 512 0 L 282.484375 0 L 282.484375 105.929688 C 301.984375 105.929688 317.792969 121.738281 317.792969 141.242188 C 317.792969 160.742188 301.984375 176.550781 282.484375 176.550781 C 301.984375 176.550781 317.792969 192.359375 317.792969 211.863281 C 317.792969 231.363281 301.984375 247.171875 282.484375 247.171875 L 282.484375 406.070312 L 512 406.070312 Z M 406.070312 247.171875 C 425.570312 247.171875 441.378906 231.363281 441.378906 211.863281 C 441.378906 231.363281 425.570312 247.171875 406.070312 247.171875 C 386.566406 247.171875 370.757812 231.363281 370.757812 211.863281 L 370.757812 141.242188 C 370.757812 121.738281 386.566406 105.929688 406.070312 105.929688 C 425.570312 105.929688 441.378906 121.738281 441.378906 141.242188 C 441.378906 121.738281 425.570312 105.929688 406.070312 105.929688 C 386.566406 105.929688 370.757812 121.738281 370.757812 141.242188 L 370.757812 211.863281 C 370.757812 231.363281 386.566406 247.171875 406.070312 247.171875 Z M 406.070312 247.171875 " style=" stroke:none;fill-rule:nonzero;fill:rgb(100%,73.333333%,37.647059%);fill-opacity:1;" />
<path d="M 512 441.378906 L 512 406.070312 L 52.964844 406.070312 C 23.714844 406.070312 0 429.78125 0 459.035156 L 512 459.035156 Z M 512 441.378906 " style=" stroke:none;fill-rule:nonzero;fill:rgb(100%,88.627451%,43.137255%);fill-opacity:1;" />
<path d="M 0 459.035156 C 0.0429688 488.269531 23.730469 511.957031 52.964844 512 L 512 512 L 512 459.035156 Z M 0 459.035156 " style=" stroke:none;fill-rule:nonzero;fill:rgb(100%,84.705882%,22.352941%);fill-opacity:1;" />
<path d="M 512 485.515625 L 158.898438 485.515625 C 154.019531 485.515625 150.070312 481.566406 150.070312 476.691406 C 150.070312 471.8125 154.019531 467.863281 158.898438 467.863281 L 512 467.863281 Z M 512 485.515625 " style=" stroke:none;fill-rule:nonzero;fill:rgb(100%,80.392157%,0%);fill-opacity:1;" />
<path d="M 512 450.207031 L 229.515625 450.207031 C 224.640625 450.207031 220.691406 446.253906 220.691406 441.378906 C 220.691406 436.503906 224.640625 432.550781 229.515625 432.550781 L 512 432.550781 Z M 512 450.207031 " style=" stroke:none;fill-rule:nonzero;fill:rgb(100%,80.392157%,0%);fill-opacity:1;" />
<path d="M 194.207031 256 C 189.96875 255.992188 186.332031 252.972656 185.546875 248.804688 L 160.398438 114.757812 L 157.394531 114.757812 L 132.253906 248.804688 C 131.535156 253.628906 127.042969 256.953125 122.222656 256.234375 C 117.398438 255.511719 114.074219 251.023438 114.792969 246.199219 C 114.828125 245.976562 114.867188 245.757812 114.917969 245.539062 L 141.402344 104.296875 C 142.1875 100.128906 145.828125 97.105469 150.070312 97.101562 L 167.726562 97.101562 C 171.96875 97.105469 175.609375 100.128906 176.394531 104.296875 L 202.875 245.539062 C 203.777344 250.328125 200.625 254.945312 195.835938 255.847656 C 195.296875 255.949219 194.753906 256 194.207031 256 Z M 194.207031 256 " style=" stroke:none;fill-rule:nonzero;fill:rgb(0%,42.745098%,94.117647%);fill-opacity:1;" />
<path d="M 406.070312 256 C 381.703125 255.96875 361.960938 236.226562 361.929688 211.863281 L 361.929688 141.242188 C 361.929688 116.863281 381.691406 97.101562 406.070312 97.101562 C 430.445312 97.101562 450.207031 116.863281 450.207031 141.242188 C 450.207031 146.117188 446.253906 150.070312 441.378906 150.070312 C 436.503906 150.070312 432.550781 146.117188 432.550781 141.242188 C 432.550781 126.613281 420.695312 114.757812 406.070312 114.757812 C 391.441406 114.757812 379.585938 126.613281 379.585938 141.242188 L 379.585938 211.863281 C 379.585938 226.488281 391.441406 238.34375 406.070312 238.34375 C 420.695312 238.34375 432.550781 226.488281 432.550781 211.863281 C 432.550781 206.988281 436.503906 203.035156 441.378906 203.035156 C 446.253906 203.035156 450.207031 206.988281 450.207031 211.863281 C 450.175781 236.226562 430.433594 255.96875 406.070312 256 Z M 406.070312 256 " style=" stroke:none;fill-rule:nonzero;fill:rgb(0%,42.745098%,94.117647%);fill-opacity:1;" />
<path d="M 282.484375 185.378906 L 247.171875 185.378906 C 242.296875 185.378906 238.34375 181.425781 238.34375 176.550781 L 238.34375 105.929688 C 238.34375 101.054688 242.296875 97.105469 247.171875 97.105469 L 282.484375 97.105469 C 306.859375 97.105469 326.621094 116.867188 326.621094 141.242188 C 326.621094 165.617188 306.859375 185.378906 282.484375 185.378906 Z M 256 167.722656 L 282.484375 167.722656 C 297.109375 167.722656 308.964844 155.867188 308.964844 141.242188 C 308.964844 126.613281 297.109375 114.757812 282.484375 114.757812 L 256 114.757812 Z M 256 167.722656 " style=" stroke:none;fill-rule:nonzero;fill:rgb(0%,42.745098%,94.117647%);fill-opacity:1;" />
<path d="M 282.484375 256 L 247.171875 256 C 242.296875 256 238.34375 252.046875 238.34375 247.171875 L 238.34375 176.550781 C 238.34375 171.675781 242.296875 167.722656 247.171875 167.722656 L 282.484375 167.722656 C 306.859375 167.722656 326.621094 187.484375 326.621094 211.863281 C 326.621094 236.238281 306.859375 256 282.484375 256 Z M 256 238.34375 L 282.484375 238.34375 C 297.109375 238.34375 308.964844 226.488281 308.964844 211.863281 C 308.964844 197.234375 297.109375 185.378906 282.484375 185.378906 L 256 185.378906 Z M 256 238.34375 " style=" stroke:none;fill-rule:nonzero;fill:rgb(0%,42.745098%,94.117647%);fill-opacity:1;" />
<path d="M 176.550781 185.378906 L 141.242188 185.378906 C 136.367188 185.378906 132.414062 181.425781 132.414062 176.550781 C 132.414062 171.675781 136.367188 167.726562 141.242188 167.726562 L 176.550781 167.726562 C 181.425781 167.726562 185.378906 171.675781 185.378906 176.550781 C 185.378906 181.425781 181.425781 185.378906 176.550781 185.378906 Z M 176.550781 185.378906 " style=" stroke:none;fill-rule:nonzero;fill:rgb(0%,42.745098%,94.117647%);fill-opacity:1;" />
<path d="M 476.691406 291.308594 L 88.277344 291.308594 C 83.402344 291.308594 79.449219 287.359375 79.449219 282.484375 C 79.449219 277.605469 83.402344 273.65625 88.277344 273.65625 L 476.691406 273.65625 C 481.566406 273.65625 485.515625 277.605469 485.515625 282.484375 C 485.515625 287.359375 481.566406 291.308594 476.691406 291.308594 Z M 476.691406 291.308594 " style=" stroke:none;fill-rule:nonzero;fill:rgb(93.333333%,52.941176%,0%);fill-opacity:1;" />
</g>
</svg>