<?xml version="1.0" encoding="utf-8"?>
<!-- Generator: Adobe Illustrator 19.0.0, SVG Export Plug-In . SVG Version: 6.00 Build 0)  -->
<svg version="1.1" id="Layer_1" xmlns="http://www.w3.org/2000/svg" xmlns:xlink="http://www.w3.org/1999/xlink" x="0px" y="0px"
	 viewBox="-57 141 512 512" style="enable-background:new -57 141 512 512;" xml:space="preserve">
<style type="text/css">
	.st0{fill:#FFEBB7;}
	.st1{fill:#5C546A;}
	.st2{fill:#00C37A;}
	.st3{fill:#009BCA;}
	.st4{fill:#E6BE94;}
	.st5{fill:#FF4F19;}
</style>
<g>
	<g>
		<path class="st0" d="M426.8,621h-375c-40.3,0-73-32.7-73-73v-14c0-40.3,32.7-73,73-73h375V621z"/>
	</g>
	<g>
		<rect x="-5.2" y="477" class="st1" width="40" height="128"/>
	</g>
	<g>
		<path class="st0" d="M388.8,437h-426V325h426c12.1,0,22,9.9,22,22v68C410.8,427.1,400.9,437,388.8,437z"/>
	</g>
	<g>
		<rect x="18.8" y="181" class="st0" width="408" height="120"/>
	</g>
	<g>
		<path class="st2" d="M427,637H59c-52.9,0-96-43.1-96-96s43.1-96,96-96h368c8.8,0,16,7.2,16,16s-7.2,16-16,16H59
			c-35.3,0-64,28.7-64,64s28.7,64,64,64h368c8.8,0,16,7.2,16,16S435.8,637,427,637z"/>
	</g>
	<g>
		<g>
			<path class="st3" d="M379,445H-45c-4.4,0-8-3.6-8-8s3.6-8,8-8h424c13.2,0,24-10.8,24-24v-48c0-13.2-10.8-24-24-24H-45
				c-4.4,0-8-3.6-8-8s3.6-8,8-8h424c22.1,0,40,17.9,40,40v48C419,427.1,401.1,445,379,445z"/>
		</g>
	</g>
	<g>
		<path class="st4" d="M426.8,221h-368c-4.4,0-8-3.6-8-8l0,0c0-4.4,3.6-8,8-8h368V221z"/>
	</g>
	<g>
		<path class="st4" d="M426.8,253h-368c-4.4,0-8-3.6-8-8l0,0c0-4.4,3.6-8,8-8h368V253z"/>
	</g>
	<g>
		<path class="st4" d="M426.8,285h-368c-4.4,0-8-3.6-8-8l0,0c0-4.4,3.6-8,8-8h368V285z"/>
	</g>
	<g>
		<path class="st4" d="M-37.2,349h416c4.4,0,8,3.6,8,8l0,0c0,4.4-3.6,8-8,8h-416C-37.2,365-37.2,349-37.2,349z"/>
	</g>
	<g>
		<path class="st4" d="M-37.2,381h416c4.4,0,8,3.6,8,8l0,0c0,4.4-3.6,8-8,8h-416C-37.2,397-37.2,381-37.2,381z"/>
	</g>
	<g>
		<path class="st4" d="M-37.2,413h416c4.4,0,8,3.6,8,8l0,0c0,4.4-3.6,8-8,8h-416C-37.2,429-37.2,413-37.2,413z"/>
	</g>
	<g>
		<path class="st5" d="M435,317H51c-26.5,0-48-21.5-48-48v-64c0-26.5,21.5-48,48-48h384c8.8,0,16,7.2,16,16s-7.2,16-16,16H51
			c-8.8,0-16,7.2-16,16v64c0,8.8,7.2,16,16,16h384c8.8,0,16,7.2,16,16S443.8,317,435,317z"/>
	</g>
	<g>
		<path class="st4" d="M58.8,589c-4.4,0-8,3.6-8,8s3.6,8,8,8h368v-16H58.8z"/>
	</g>
	<g>
		<path class="st4" d="M58.8,557c-4.4,0-8,3.6-8,8s3.6,8,8,8h368v-16H58.8z"/>
	</g>
	<g>
		<path class="st4" d="M58.8,525c-4.4,0-8,3.6-8,8s3.6,8,8,8h368v-16H58.8z"/>
	</g>
	<g>
		<path class="st4" d="M58.8,493c-4.4,0-8,3.6-8,8s3.6,8,8,8h368v-16H58.8z"/>
	</g>
</g>
</svg>
