<?xml version="1.0" encoding="utf-8"?>
<!-- Generator: Adobe Illustrator 19.0.0, SVG Export Plug-In . SVG Version: 6.00 Build 0)  -->
<svg version="1.1" id="Capa_1" xmlns="http://www.w3.org/2000/svg" xmlns:xlink="http://www.w3.org/1999/xlink" x="0px" y="0px"
	 viewBox="-49 141 512 512" style="enable-background:new -49 141 512 512;" xml:space="preserve">
<style type="text/css">
	.st0{fill:#D1D6DE;}
	.st1{fill:#EBEEF2;}
	.st2{fill:#656D88;}
	.st3{fill:#FCAB29;}
	.st4{fill:#DD8D19;}
	.st5{fill:#5C9CEE;}
	.st6{fill:#9FD479;}
	.st7{fill:#F9C295;}
	.st8{fill:#444966;}
</style>
<path class="st0" d="M46.7,241.4h45.9v-82.2c0-10.1-8.2-18.3-18.3-18.3l0,0c-8.3,0-15.6,5.6-17.7,13.7l-19.3,74.8
	C35.9,235.5,40.5,241.4,46.7,241.4z"/>
<path class="st1" d="M134.8,141H92.6H74.4c10.1,0,18.3,8.2,18.3,18.3v82.2v146.9h313.1v-220c0-15.1-12.3-27.4-27.4-27.4H134.8z"/>
<path class="st0" d="M378.4,141h-23.6c15.1,0,27.4,12.3,27.4,27.4v220h23.6v-220C405.8,153.3,393.5,141,378.4,141z"/>
<g>
	<path class="st2" d="M346.6,212.7H151.8c-4.3,0-7.7-3.5-7.7-7.7c0-4.3,3.5-7.7,7.7-7.7h194.8c4.3,0,7.7,3.5,7.7,7.7
		C354.4,209.2,350.9,212.7,346.6,212.7z"/>
	<path class="st2" d="M346.6,270.2H151.8c-4.3,0-7.7-3.5-7.7-7.7s3.5-7.7,7.7-7.7h194.8c4.3,0,7.7,3.5,7.7,7.7
		S350.9,270.2,346.6,270.2z"/>
	<path class="st2" d="M346.6,327.8H151.8c-4.3,0-7.7-3.5-7.7-7.7s3.5-7.7,7.7-7.7h194.8c4.3,0,7.7,3.5,7.7,7.7
		C354.4,324.3,350.9,327.8,346.6,327.8z"/>
</g>
<path class="st3" d="M238.2,344.6L220,307.2c-2.4-5-7.5-8.1-13-8.1H79.5c-8,0-14.4,6.5-14.4,14.4v39.2v247.3c0,8,6.5,14.4,14.4,14.4
	h337.6c8,0,14.4-6.5,14.4-14.4V367.2c0-8-6.5-14.4-14.4-14.4H251.2C245.7,352.7,240.6,349.6,238.2,344.6z"/>
<g>
	<path class="st4" d="M195,307.2l18.2,37.4c2.4,5,7.5,8.1,13,8.1h24.9c-5.5,0-10.6-3.1-13-8.1L220,307.2c-2.4-5-7.5-8.1-13-8.1
		h-24.9C187.6,299.1,192.6,302.3,195,307.2z"/>
	<path class="st4" d="M417.1,352.7h-24.9c8,0,14.4,6.5,14.4,14.4v232.9c0,8-6.5,14.4-14.4,14.4h24.9c8,0,14.4-6.5,14.4-14.4V367.2
		C431.5,359.2,425.1,352.7,417.1,352.7z"/>
</g>
<g>
	<path class="st5" d="M269.8,488.3c0,52.8-26.7,99.4-67.3,127c-24.5,16.7-54.1,26.4-86,26.4s-61.5-9.7-86-26.4
		c-40.6-27.6-67.3-74.2-67.3-127c0-84.7,68.7-153.4,153.4-153.4S269.8,403.6,269.8,488.3z"/>
	<path class="st5" d="M260.5,488.3c0,47.8-23.6,92.4-63.2,119.3c-23.9,16.2-51.8,24.8-80.8,24.8s-56.9-8.6-80.8-24.8
		c-39.6-26.9-63.2-71.5-63.2-119.3c0-79.4,64.6-144.1,144.1-144.1S260.5,408.9,260.5,488.3z"/>
</g>
<path class="st6" d="M116.5,651c-32.7,0-64.3-9.7-91.3-28c-44.7-30.4-71.4-80.7-71.4-134.7c0-89.7,73-162.7,162.7-162.7
	s162.7,73,162.7,162.7c0,54-26.7,104.3-71.4,134.7C180.8,641.3,149.2,651,116.5,651z M116.5,344.3c-79.4,0-144.1,64.6-144.1,144.1
	c0,47.8,23.6,92.4,63.2,119.3c23.9,16.2,51.8,24.8,80.8,24.8s56.9-8.6,80.8-24.8c39.6-26.9,63.2-71.5,63.2-119.3
	C260.5,408.9,195.9,344.3,116.5,344.3z"/>
<path class="st7" d="M116.5,378.1L116.5,378.1c-32.1,0-58.1,26-58.1,58.1v28c0,32.1,26,58.1,58.1,58.1l0,0c32.1,0,58.1-26,58.1-58.1
	v-28C174.6,404.2,148.6,378.1,116.5,378.1z"/>
<path class="st8" d="M200.5,605.4c-1.1,0.8-2.1,1.5-3.2,2.3c-23.7,16-51.3,24.6-80,24.8c-0.3,0-0.6,0-0.8,0c-0.3,0-0.6,0-0.8,0
	c-28.7-0.1-56.3-8.7-80-24.8c-1.1-0.7-2.1-1.5-3.2-2.3c5.6-19.4,20.6-34.9,39.7-41.3h0l0,0v0c0.8-0.2,1.5-0.5,2.3-0.7
	c0.1,0,0.3-0.1,0.4-0.1c0.6-0.2,1.3-0.3,2-0.5c0.8-0.2,1.5-0.4,2.3-0.5c0.1,0,0.2,0,0.3-0.1c0.6-0.1,1.1-0.2,1.7-0.3
	c0.2,0,0.4-0.1,0.6-0.1c0.4-0.1,0.7-0.1,1.1-0.2c0.2,0,0.3,0,0.5-0.1c0.2,0,0.4-0.1,0.6-0.1c0.1,0,0.2,0,0.4,0
	c0.3,0,0.6-0.1,0.9-0.1c0.5-0.1,1-0.1,1.5-0.1c0.4,0,0.8-0.1,1.3-0.1c0.4,0,0.8,0,1.1-0.1c0.2,0,0.3,0,0.5,0c0.3,0,0.6,0,0.9,0
	c0.4,0,0.9,0,1.3,0h49.6c0.4,0,0.9,0,1.3,0c0.3,0,0.6,0,0.9,0c0.2,0,0.3,0,0.5,0c0.4,0,0.8,0,1.1,0.1c0.4,0,0.8,0,1.3,0.1
	c0.5,0,1.1,0.1,1.6,0.1c0.3,0,0.6,0.1,0.8,0.1c0.1,0,0.2,0,0.4,0c0.1,0,0.3,0,0.4,0.1c0.6,0.1,1.2,0.2,1.8,0.3
	c0.2,0,0.5,0.1,0.7,0.1c0.5,0.1,1,0.2,1.5,0.3c0.1,0,0.2,0,0.3,0.1c0.7,0.1,1.4,0.3,2.1,0.5c0.1,0,0.3,0.1,0.4,0.1
	c0.6,0.1,1.1,0.3,1.7,0.4c0.1,0,0.3,0.1,0.4,0.1c0,0,0,0,0,0c0.8,0.2,1.5,0.5,2.3,0.7v0l0,0h0C179.9,570.5,194.9,585.9,200.5,605.4z
	"/>
<path class="st1" d="M160.9,564.1L160.9,564.1l-43.5,68.3c-0.3,0-0.6,0-0.8,0s-0.6,0-0.8,0l-43.5-68.3l0,0h0c1.5-0.5,3.1-1,4.7-1.4
	c0.8-0.2,1.5-0.4,2.3-0.5c0.1,0,0.2,0,0.3-0.1c0.6-0.1,1.1-0.2,1.7-0.3c0.2,0,0.4-0.1,0.6-0.1c0.4-0.1,0.7-0.1,1.1-0.2
	c0.2,0,0.3,0,0.5-0.1c0.6-0.1,1.3-0.2,1.9-0.2c0.5-0.1,1-0.1,1.5-0.1c0.4,0,0.8-0.1,1.3-0.1c0.4,0,0.8,0,1.1-0.1c0.5,0,0.9,0,1.4,0
	c0.4,0,0.9,0,1.3,0h49.6c0.4,0,0.9,0,1.3,0c0.5,0,0.9,0,1.4,0c0.4,0,0.8,0,1.1,0.1c0.4,0,0.8,0,1.3,0.1c0.5,0,1.1,0.1,1.6,0.1
	c0.5,0.1,1.1,0.1,1.6,0.2c0.6,0.1,1.2,0.2,1.8,0.3c0.2,0,0.5,0.1,0.7,0.1c0.5,0.1,1,0.2,1.5,0.3c0.1,0,0.2,0,0.3,0.1
	c0.7,0.1,1.4,0.3,2.1,0.5c0.1,0,0.3,0.1,0.4,0.1c0.7,0.2,1.4,0.4,2.1,0.6c0,0,0,0,0,0C159.3,563.6,160.1,563.8,160.9,564.1
	L160.9,564.1z"/>
<path class="st8" d="M154.3,392.1C154.3,392.1,154.3,392.1,154.3,392.1c-0.1-0.1-0.2-0.2-0.3-0.3c-0.4-0.4-0.9-0.7-1.4-1.1
	c-0.2-0.2-0.4-0.3-0.6-0.5c-0.4-0.3-0.8-0.6-1.3-1c-0.2-0.2-0.5-0.4-0.8-0.5c-0.4-0.3-0.8-0.5-1.2-0.8c-0.3-0.2-0.6-0.4-0.9-0.6
	c-0.4-0.2-0.7-0.5-1.1-0.7c-0.3-0.2-0.7-0.4-1-0.6c-0.3-0.2-0.6-0.4-0.9-0.5c-0.4-0.2-0.8-0.5-1.2-0.7c-0.2-0.1-0.4-0.2-0.6-0.3
	c-7.9-4.1-16.9-6.4-26.5-6.4c-32.1,0-58.1,26-58.1,58.1v5.4c8.6,3.8,18,5.9,28,5.9c20.4,0,38.8-8.9,51.5-22.9
	c8,12.4,21.3,21,36.8,22.6v-11C174.6,418.6,166.7,402.8,154.3,392.1z"/>
</svg>
