<?xml version="1.0" encoding="utf-8"?>
<!-- Generator: Adobe Illustrator 19.0.0, SVG Export Plug-In . SVG Version: 6.00 Build 0)  -->
<svg version="1.1" id="Capa_1" xmlns="http://www.w3.org/2000/svg" xmlns:xlink="http://www.w3.org/1999/xlink" x="0px" y="0px"
	 viewBox="-41 164.9 512 512" style="enable-background:new -41 164.9 512 512;" xml:space="preserve">
<style type="text/css">
	.st0{fill:#E8EAEA;}
	.st1{fill:#FF7058;}
	.st2{fill:#F2F2F2;}
	.st3{fill:#54C0EB;}
	.st4{fill:#84DBFF;}
	.st5{fill:#40596B;}
	.st6{fill:#ACB3BA;}
</style>
<g>
	<g>
		<rect x="-41" y="288.6" class="st0" width="113.1" height="345.6"/>
		<rect x="357.9" y="288.6" class="st0" width="113.1" height="345.6"/>
	</g>
	<path class="st1" d="M-41,295L-41,295h512l0,0c0-12.8-10.7-23.5-23.5-23.5H-17.5C-30.3,271.6-41,282.2-41,295z"/>
	<rect x="72.1" y="231" class="st2" width="285.9" height="403.2"/>
	<path class="st1" d="M373.9,207.6H56.1c-6.4,0-11.7,5.3-11.7,11.7c0,6.4,5.3,11.7,11.7,11.7h317.9c6.4,0,11.7-5.3,11.7-11.7
		C385.7,212.9,380.3,207.6,373.9,207.6z"/>
	<g>
		<rect x="-9" y="320.6" class="st3" width="49.1" height="54.4"/>
		<rect x="-9" y="396.4" class="st3" width="49.1" height="54.4"/>
		<rect x="-9" y="472.1" class="st3" width="49.1" height="54.4"/>
		<rect x="-9" y="547.8" class="st3" width="49.1" height="54.4"/>
		<rect x="389.9" y="320.6" class="st3" width="49.1" height="54.4"/>
		<rect x="389.9" y="396.4" class="st3" width="49.1" height="54.4"/>
		<rect x="389.9" y="472.1" class="st3" width="49.1" height="54.4"/>
		<rect x="389.9" y="547.8" class="st3" width="49.1" height="54.4"/>
	</g>
	<rect x="104.1" y="415.6" class="st4" width="53.3" height="54.4"/>
	<rect x="157.4" y="500.9" class="st5" width="114.1" height="133.3"/>
	<rect x="-41" y="611.8" class="st6" width="512" height="22.4"/>
	<g>
		<rect x="104.1" y="264.1" class="st4" width="53.3" height="54.4"/>
		<rect x="104.1" y="339.8" class="st4" width="53.3" height="54.4"/>
		<rect x="188.3" y="264.1" class="st4" width="53.3" height="54.4"/>
		<rect x="188.3" y="339.8" class="st4" width="53.3" height="54.4"/>
		<rect x="188.3" y="415.6" class="st4" width="53.3" height="54.4"/>
		<rect x="272.6" y="264.1" class="st4" width="53.3" height="54.4"/>
		<rect x="272.6" y="339.8" class="st4" width="53.3" height="54.4"/>
		<rect x="272.6" y="415.6" class="st4" width="53.3" height="54.4"/>
	</g>
</g>
</svg>
