<?xml version="1.0" encoding="utf-8"?>
<!-- Generator: Adobe Illustrator 19.0.0, SVG Export Plug-In . SVG Version: 6.00 Build 0)  -->
<svg version="1.1" id="Layer_1" xmlns="http://www.w3.org/2000/svg" xmlns:xlink="http://www.w3.org/1999/xlink" x="0px" y="0px"
	 viewBox="-67 190.9 460 460" style="enable-background:new -67 190.9 460 460;" xml:space="preserve">
<style type="text/css">
	.st0{fill:#C8523B;}
	.st1{fill:#E5C400;}
	.st2{fill:#59595A;}
	.st3{fill:#608A7C;}
	.st4{fill:#ABCB57;}
	.st5{fill:#B9BBBC;}
	.st6{opacity:0.3;fill:#5B5B5F;enable-background:new    ;}
</style>
<polygon class="st0" points="12.3,333.3 9.6,369.6 62.1,369.6 64.8,333.3 "/>
<polygon class="st1" points="-2.9,541.6 49.5,543.3 50.3,532.3 -2.1,530.6 "/>
<polygon class="st0" points="-4.8,567.3 47.7,567.3 49.5,543.3 -2.9,541.6 "/>
<polygon class="st0" points="-2.1,530.6 50.3,532.3 60.1,393.8 7.6,393.8 "/>
<polygon class="st1" points="7.6,393.8 60.1,393.8 62.1,369.6 9.6,369.6 "/>
<rect x="66.2" y="236.5" class="st1" width="72.6" height="40.4"/>
<rect x="66.2" y="349.4" class="st1" width="72.6" height="217.9"/>
<rect x="66.2" y="276.8" class="st2" width="72.6" height="72.6"/>
<rect x="146.9" y="385.8" class="st3" width="52.5" height="44.4"/>
<rect x="146.9" y="430.1" class="st4" width="52.5" height="84.7"/>
<rect x="146.9" y="531" class="st4" width="52.5" height="36.3"/>
<rect x="146.9" y="514.9" class="st1" width="52.5" height="16.1"/>
<rect x="146.9" y="325.2" class="st4" width="52.5" height="60.5"/>
<rect x="146.9" y="272.8" class="st4" width="52.5" height="40.3"/>
<rect x="146.9" y="313.1" class="st3" width="52.5" height="12.1"/>
<polygon class="st4" points="226.7,263.6 201.4,265.4 202.5,279.2 227.8,277.4 "/>
<polygon class="st3" points="225.3,567.3 250.7,567.3 248,532.3 222.8,535.5 "/>
<polygon class="st3" points="224.5,234.4 199.2,236.5 201.4,265.4 226.7,263.6 "/>
<polygon class="st3" points="227.8,277.4 202.5,279.2 220.9,512.4 246.1,509.2 "/>
<polygon class="st4" points="220.9,512.4 222.8,535.5 248,532.3 246.1,509.2 "/>
<rect x="255.8" y="514.9" class="st0" width="72.6" height="52.5"/>
<rect x="255.8" y="297" class="st0" width="72.6" height="157.4"/>
<rect x="255.8" y="454.4" class="st1" width="72.6" height="60.5"/>
<rect x="-67" y="567.3" class="st5" width="460" height="40"/>
<rect x="-67" y="587.3" class="st6" width="460" height="20"/>
</svg>
