<?xml version="1.0" encoding="utf-8"?>
<!-- Generator: Adobe Illustrator 19.0.0, SVG Export Plug-In . SVG Version: 6.00 Build 0)  -->
<svg version="1.1" id="Capa_1" xmlns="http://www.w3.org/2000/svg" xmlns:xlink="http://www.w3.org/1999/xlink" x="0px" y="0px"
	 viewBox="-49 141 512 512" style="enable-background:new -49 141 512 512;" xml:space="preserve">
<style type="text/css">
	.st0{fill:#EFCE4A;}
	.st1{fill:#EBBA16;}
	.st2{fill:#F4EFDC;}
	.st3{fill:#CEC9AE;}
	.st4{fill:#D1BF86;}
</style>
<g>
	<path class="st0" d="M359.3,652H-34.3c-9.1,0-15.6-8.6-13.3-17.3l89.4-245.1c1.6-6,7.1-10.2,13.3-10.2h393.6
		c9.1,0,13.3,8.7,13.3,17.3l-89.4,245.1C371,647.8,365.5,652,359.3,652z"/>
	<path class="st1" d="M394,300.3h-19.9v79.1h35.2v-63.9C409.2,307.1,402.4,300.3,394,300.3z"/>
	<path class="st1" d="M-12.8,238.7h-19.9c-8.4,0-15.2,6.8-15.2,15.2v375.7c0.6,0,1.2,0.1,1.8,0.1l33.4-91L-12.8,238.7L-12.8,238.7z"
		/>
	<path class="st2" d="M41.9,389.6c1.6-6,7.1-10.2,13.3-10.2h17.6h301.3V273.9V142H242.2H40v252.9L41.9,389.6z"/>
	<g>
		<path class="st3" d="M101.5,282.7h211c4.9,0,8.8-3.9,8.8-8.8c0-4.9-3.9-8.8-8.8-8.8h-211c-4.9,0-8.8,3.9-8.8,8.8
			C92.7,278.8,96.6,282.7,101.5,282.7z"/>
		<path class="st3" d="M101.5,221.1h87.9c4.9,0,8.8-3.9,8.8-8.8s-3.9-8.8-8.8-8.8h-87.9c-4.9,0-8.8,3.9-8.8,8.8
			S96.6,221.1,101.5,221.1z"/>
		<path class="st3" d="M312.5,326.6h-211c-4.9,0-8.8,3.9-8.8,8.8c0,4.9,3.9,8.8,8.8,8.8h211c4.9,0,8.8-3.9,8.8-8.8
			C321.3,330.5,317.4,326.6,312.5,326.6z"/>
	</g>
	<polygon class="st3" points="39.9,394.9 39.9,159.6 13.6,159.6 13.6,467.2 	"/>
	<polygon class="st4" points="13.6,467.2 13.6,177.2 -12.8,177.2 -12.8,539.5 	"/>
</g>
</svg>
