<?xml version="1.0" encoding="utf-8"?>
<!-- Generator: Adobe Illustrator 19.0.0, SVG Export Plug-In . SVG Version: 6.00 Build 0)  -->
<svg version="1.1" id="Layer_1" xmlns="http://www.w3.org/2000/svg" xmlns:xlink="http://www.w3.org/1999/xlink" x="0px" y="0px"
	 viewBox="-49 141 512 512" style="enable-background:new -49 141 512 512;" xml:space="preserve">
<style type="text/css">
	.st0{fill:#343A42;}
	.st1{fill:#EC87C0;}
	.st2{fill:#EAC6BB;}
	.st3{fill:#5D9CEC;}
	.st4{fill:#A85D5D;}
	.st5{fill:#434A54;}
	.st6{fill:#656D78;}
</style>
<g>
	<path class="st0" d="M331,277.7c-123.3,0.3-68.6,143-110.6,178.4c0,0,22.7,21,110.6,21l0,0l0,0c88,0,110.7-21,110.7-21
		C399.6,420.7,454.3,278.1,331,277.7z"/>
	<path class="st1" d="M441.3,497.5l-0.9-0.3c-14.4-3.9-24.9-7.6-31.2-10.1c-22.5-8.7-28.3-14.9-29.8-17.8c-0.1-0.1-0.1-0.2-0.1-0.3
		l-0.2-27.5l-96,1.1l-0.2,26.4c0,0.1-0.1,0.2-0.1,0.3c-1.5,2.9-7.3,9.2-29.8,17.8c-6.3,2.4-16.9,6.2-31.1,10l-1,0.3
		c-13,4.3-21.7,16.5-21.7,30.2v38.1H463v-38.1C463,513.9,454.3,501.8,441.3,497.5z"/>
	<path class="st2" d="M405.8,391.3c0,48.6-46.3,95.3-74.8,95.3s-74.8-46.7-74.8-95.3s33.5-80.7,74.8-80.7S405.8,342.7,405.8,391.3z"
		/>
	<path class="st3" d="M244.7,482.9l-1-0.3c-17.4-4.7-30.2-9.2-37.9-12.2c-27.2-10.5-34.4-18-36.2-21.6c-0.1-0.1-0.1-0.3-0.2-0.4
		l-0.2-33.3l-116.4,1.3l-0.2,32c-0.1,0.1-0.1,0.3-0.2,0.4c-1.8,3.6-8.9,11.2-36.2,21.7c-7.7,2.9-20.5,7.4-37.7,12.1l-1.2,0.3
		c-15.7,5.2-26.3,20-26.3,36.6v46.2h320v-46.2C271,502.9,260.4,488.2,244.7,482.9z"/>
	<path class="st2" d="M201.6,354.2c0,58.9-56.2,115.6-90.7,115.6s-90.7-56.6-90.7-115.6c0-58.9,40.6-97.8,90.7-97.8
		C161.1,256.4,201.6,295.3,201.6,354.2z"/>
	<path class="st4" d="M169.4,245.7c-15.4-14-67.1-31.1-118.7,0c-26.1,15.8-45.1,85.4-45.1,85.4s50.9,28.9,117.2-2.3
		c39.7-18.7,38.8-8.9,50.1,8.1c6.7,10.1,28.7,17.3,28.7,17.3S218.7,290.4,169.4,245.7z"/>
	<path class="st5" d="M347,278.7l-5,52.4c0,0,34.8,31.3,76.2,32.7h0.2C412.8,323.5,400.1,285.1,347,278.7z"/>
	<path class="st6" d="M383.3,291.2c-12.4-8.4-29.2-13.4-52.3-13.5c-77.1,0.2-84.6,56-89.7,106.5
		C315.1,380.2,383.3,291.2,383.3,291.2z"/>
</g>
</svg>
