<?xml version="1.0" encoding="utf-8"?>
<!-- Generator: Adobe Illustrator 19.0.0, SVG Export Plug-In . SVG Version: 6.00 Build 0)  -->
<svg version="1.1" id="Layer_1" xmlns="http://www.w3.org/2000/svg" xmlns:xlink="http://www.w3.org/1999/xlink" x="0px" y="0px"
	 viewBox="-61 153 488 488" style="enable-background:new -61 153 488 488;" xml:space="preserve">
<style type="text/css">
	.st0{fill:#B0AECC;}
</style>
<g transform="translate(0 -540.36)">
	<g>
		<g>
			<path class="st0" d="M387.9,819.1c0-0.1-0.1-0.3-0.1-0.4c0-0.2-0.1-0.3-0.1-0.5c0-0.1-0.1-0.3-0.1-0.4c-0.1-0.2-0.1-0.3-0.2-0.5
				c0-0.1-0.1-0.3-0.1-0.4c-0.1-0.3-0.2-0.5-0.4-0.8c-0.1-0.1-0.1-0.2-0.2-0.3c-0.1-0.2-0.2-0.3-0.3-0.5c-0.1-0.1-0.1-0.2-0.2-0.3
				s-0.1-0.2-0.2-0.3l-90-117.4l-0.1-0.1c-0.2-0.2-0.3-0.4-0.5-0.6c-0.1-0.1-0.1-0.2-0.2-0.2c-0.2-0.3-0.5-0.5-0.8-0.7
				c0,0,0,0-0.1-0.1c-0.3-0.2-0.5-0.4-0.8-0.6c-0.1-0.1-0.2-0.1-0.3-0.2c-0.2-0.1-0.4-0.3-0.7-0.4c-0.1,0-0.2-0.1-0.3-0.1
				c-0.2-0.1-0.5-0.2-0.7-0.3c-0.1,0-0.2-0.1-0.3-0.1c-0.2-0.1-0.5-0.2-0.7-0.2c-0.1,0-0.2-0.1-0.3-0.1c-0.3-0.1-0.5-0.1-0.8-0.1
				c-0.1,0-0.2,0-0.3,0c-0.4,0-0.7-0.1-1.1-0.1H-12c-5.5,0-10,4.5-10,10v468c0,5.5,4.5,10,10,10h390c5.5,0,10-4.5,10-10V820.8
				c0-0.2,0-0.5,0-0.8l0,0c0-0.1,0-0.2,0-0.3C388,819.5,387.9,819.3,387.9,819.1z M357.7,810.9h-59.5l-0.2-77.8L357.7,810.9z
				 M368,1161.5H-2v-448h280l0.2,107.4c0,5.5,4.5,10,10,10H368V1161.5z"/>
			<path class="st0" d="M40.3,876.5c0,5.5,4.5,10,10,10h266.2c5.5,0,10-4.5,10-10s-4.5-10-10-10H50.3
				C44.8,866.5,40.3,871,40.3,876.5z"/>
			<path class="st0" d="M50.3,825.5h173.9l0,0c5.5,0,9.9-4.5,9.9-10s-4.5-10-10-10H50.3c-5.5,0-10,4.5-10,10S44.8,825.5,50.3,825.5z
				"/>
			<path class="st0" d="M50.3,947.5h266.2c5.5,0,10-4.5,10-10s-4.5-10-10-10H50.3c-5.5,0-10,4.5-10,10S44.8,947.5,50.3,947.5z"/>
			<path class="st0" d="M224.2,1008.5c5.5,0,9.9-4.5,9.9-10s-4.5-10-10-10H50.3c-5.5,0-10,4.5-10,10s4.5,10,10,10H224.2
				L224.2,1008.5z"/>
			<path class="st0" d="M309.9,1021.3l-84.2,74.4l-24.3-32.5c-3.3-4.4-9.6-5.3-14-2c-4.4,3.3-5.3,9.6-2,14l30.8,41.2
				c1.7,2.3,4.2,3.7,7,4c0.3,0.1,0.7,0.1,1,0.1l0,0c2.4,0,4.7-0.9,6.6-2.6l92.3-81.6c4.2-3.6,4.6-10,0.9-14.1
				C320.4,1018,314,1017.6,309.9,1021.3z"/>
		</g>
	</g>
</g>
</svg>
