<?xml version="1.0" encoding="utf-8"?>
<!-- Generator: Adobe Illustrator 19.0.0, SVG Export Plug-In . SVG Version: 6.00 Build 0)  -->
<svg version="1.1" id="Layer_1" xmlns="http://www.w3.org/2000/svg" xmlns:xlink="http://www.w3.org/1999/xlink" x="0px" y="0px"
	 viewBox="-49 141 512 512" style="enable-background:new -49 141 512 512;" xml:space="preserve">
<style type="text/css">
	.st0{fill:#B0AECC;}
</style>
<g>
	<g>
		<path class="st0" d="M263.5,473.7H150.5c-8.5,0-15.4,6.9-15.4,15.4v34.6c0,8.5,6.9,15.4,15.4,15.4h112.9c8.5,0,15.4-6.9,15.4-15.4
			v-34.6C278.9,480.7,272,473.7,263.5,473.7z M259.1,519.4H154.9v-25.8h104.1V519.4z"/>
	</g>
</g>
<g>
	<g>
		<path class="st0" d="M458,388l0.2-0.1l-74.4-147.1c-6-11.9-18-19.3-31.3-19.3h-14.1v-13.7c0-5.5-4.4-9.9-9.9-9.9H85.7
			c-5.5,0-9.9,4.4-9.9,9.9v13.7H61.6c-13.3,0-25.3,7.4-31.3,19.3l-74.4,147.1l0.2,0.1c-3.2,5.2-5,11.4-5,18v155.4
			c0,19.2,15.6,34.8,34.8,34.8h442.5c19.2,0,34.8-15.6,34.8-34.8V405.9C463,399.4,461.2,393.2,458,388z M338.2,243.5h14.1
			c5,0,9.4,2.8,11.7,7.2L425,371.2h-41.4v-37.1c0-5.5-4.4-9.9-9.9-9.9h-12.3V271c0-5.5-4.4-9.9-9.9-9.9h-13.2V243.5z M363.7,344
			v27.1h-52.4c-9,0-17.2,5.3-20.9,13.5l-14.3,31.7c-0.1,0.3-0.4,0.5-0.8,0.5H138.6c-0.3,0-0.6-0.2-0.8-0.5l-14.3-31.7
			c-3.7-8.2-11.9-13.5-20.9-13.5H50.3V344H363.7L363.7,344z M95.6,217.7h222.8v43.3H95.6V217.7z M341.5,280.9v43.3h-269v-43.3H341.5
			L341.5,280.9z M49.9,250.7c2.2-4.4,6.7-7.2,11.7-7.2h14.1v17.5H62.6c-5.5,0-9.9,4.4-9.9,9.9v53.2H40.4c-5.5,0-9.9,4.4-9.9,9.9
			v37.1H-11L49.9,250.7z M428.2,574H-14.2c-7,0-12.7-5.7-12.7-12.7V405.9c0-7,5.7-12.7,12.7-12.7h116.9c0.3,0,0.6,0.2,0.8,0.5
			l14.3,31.7c3.7,8.2,11.9,13.5,20.9,13.5h136.8c9,0,17.2-5.3,20.9-13.5l14.3-31.7v0c0.1-0.3,0.4-0.5,0.8-0.5h116.9
			c7,0,12.7,5.7,12.7,12.7v155.4h0C441,568.4,435.3,574,428.2,574z"/>
	</g>
</g>
</svg>
