<?xml version="1.0" encoding="utf-8"?>
<!-- Generator: Adobe Illustrator 19.0.0, SVG Export Plug-In . SVG Version: 6.00 Build 0)  -->
<svg version="1.1" id="Layer_1" xmlns="http://www.w3.org/2000/svg" xmlns:xlink="http://www.w3.org/1999/xlink" x="0px" y="0px"
	 viewBox="-41 164.9 512 512" style="enable-background:new -41 164.9 512 512;" xml:space="preserve">
<style type="text/css">
	.st0{fill:#EFDFBB;}
	.st1{opacity:0.1;enable-background:new    ;}
	.st2{fill:#CEBC99;}
	.st3{fill:#C69C6D;}
	.st4{fill:#FFFFFF;}
	.st5{fill:#FFE060;}
	.st6{fill:#78B591;}
</style>
<path class="st0" d="M81.1,665c0,6.5-5.3,11.9-11.9,11.9H35.9c-6.6,0-11.9-5.3-11.9-11.9V537c0-6.5,5.3-11.9,11.9-11.9h33.3
	c6.6,0,11.9,5.3,11.9,11.9V665L81.1,665z"/>
<path class="st1" d="M56.7,665V537c1.1-6.5,6.3-11.8,12.8-11.8c-0.1,0-0.1,0-0.2,0H36c-6.6,0-11.9,5.3-11.9,11.9v128
	c0,6.5,5.3,11.9,11.9,11.9h33.3c0.1,0,0.1,0,0.2,0C63,676.8,57.7,671.5,56.7,665z"/>
<path class="st2" d="M52.5,641.8c-4.5,0-8.1-3.6-8.1-8.1v-34.5c0-4.5,3.6-8.1,8.1-8.1s8.1,3.6,8.1,8.1v34.5
	C60.6,638.2,57,641.8,52.5,641.8z"/>
<path class="st0" d="M406,665c0,6.5-5.3,11.9-11.9,11.9h-33.3c-6.6,0-11.9-5.3-11.9-11.9V537c0-6.5,5.3-11.9,11.9-11.9h33.3
	c6.6,0,11.9,5.3,11.9,11.9V665z"/>
<path class="st2" d="M377.5,641.8c-4.5,0-8.1-3.6-8.1-8.1v-34.5c0-4.5,3.6-8.1,8.1-8.1c4.5,0,8.1,3.6,8.1,8.1v34.5
	C385.5,638.2,381.9,641.8,377.5,641.8z"/>
<path class="st3" d="M406,591.6c0,9.8-8,17.8-17.9,17.8H41.8c-9.9,0-17.9-8-17.9-17.8V182.7c0-9.8,8-17.8,17.9-17.8h346.3
	c9.9,0,17.9,8,17.9,17.8L406,591.6L406,591.6L406,591.6z"/>
<path class="st1" d="M57.6,591.6V182.7c0-9.8,8-17.8,17.9-17.8H41.8c-9.9,0-17.9,8-17.9,17.8v408.9c0,9.8,8,17.8,17.9,17.8h33.7
	C65.6,609.3,57.6,601.4,57.6,591.6z"/>
<path class="st4" d="M115.1,561.9c-4.6,0-8.8-2.7-10.8-6.8c-4.5-9.5-13.3-16.6-23.5-19c-5.4-1.3-9.2-6-9.2-11.5V249.7
	c0-5.5,3.8-10.3,9.2-11.5c10.3-2.4,19.1-9.5,23.5-19c2-4.2,6.2-6.8,10.8-6.8h199.9c4.6,0,8.8,2.7,10.8,6.8
	c4.5,9.5,13.3,16.6,23.5,19c5.4,1.3,9.2,6,9.2,11.5v274.8c0,5.5-3.8,10.3-9.2,11.5c-10.3,2.4-19.1,9.5-23.5,19
	c-2,4.2-6.2,6.8-10.8,6.8L115.1,561.9L115.1,561.9z"/>
<path class="st1" d="M137.8,555.1c-4.5-9.5-13.3-16.6-23.5-19c-5.4-1.3-9.2-6-9.2-11.5V249.7c0-5.5,3.8-10.3,9.2-11.5
	c10.3-2.4,19.1-9.5,23.5-19c2-4.2,6.2-6.8,10.8-6.8h-33.5c-4.6,0-8.8,2.7-10.8,6.8c-4.5,9.5-13.3,16.6-23.5,19
	c-5.4,1.3-9.2,6-9.2,11.5v274.8c0,5.5,3.8,10.3,9.2,11.5c10.3,2.4,19.1,9.5,23.5,19c2,4.2,6.2,6.8,10.8,6.8h33.5
	C143.9,561.9,139.7,559.3,137.8,555.1z"/>
<ellipse class="st5" cx="215" cy="302.4" rx="62.1" ry="41.5"/>
<g>
	<path class="st6" d="M275.1,387.5H154.9c-4.5,0-8.1-3.6-8.1-8.1c0-4.5,3.6-8.1,8.1-8.1h120.2c4.5,0,8.1,3.6,8.1,8.1
		C283.2,383.9,279.6,387.5,275.1,387.5z"/>
	<path class="st6" d="M248.7,421.5h-67.4c-4.5,0-8.1-3.6-8.1-8.1c0-4.5,3.6-8.1,8.1-8.1h67.4c4.5,0,8.1,3.6,8.1,8.1
		C256.8,417.8,253.2,421.5,248.7,421.5z"/>
	<path class="st6" d="M283.2,514.3H146.8c-4.5,0-8.1-3.6-8.1-8.1c0-4.5,3.6-8.1,8.1-8.1h136.4c4.5,0,8.1,3.6,8.1,8.1
		C291.3,510.7,287.7,514.3,283.2,514.3z"/>
	<path class="st6" d="M153,474.4c-4.5,0-8.1-3.6-8.1-8.1v-10c0-4.5,3.6-8.1,8.1-8.1c4.5,0,8.1,3.6,8.1,8.1v10
		C161.1,470.8,157.5,474.4,153,474.4z"/>
	<path class="st6" d="M177.8,474.4c-4.5,0-8.1-3.6-8.1-8.1v-10c0-4.5,3.6-8.1,8.1-8.1s8.1,3.6,8.1,8.1v10
		C185.9,470.8,182.3,474.4,177.8,474.4z"/>
	<path class="st6" d="M202.6,474.4c-4.5,0-8.1-3.6-8.1-8.1v-10c0-4.5,3.6-8.1,8.1-8.1s8.1,3.6,8.1,8.1v10
		C210.7,470.8,207.1,474.4,202.6,474.4z"/>
	<path class="st6" d="M227.4,474.4c-4.5,0-8.1-3.6-8.1-8.1v-10c0-4.5,3.6-8.1,8.1-8.1s8.1,3.6,8.1,8.1v10
		C235.5,470.8,231.9,474.4,227.4,474.4z"/>
	<path class="st6" d="M252.2,474.4c-4.5,0-8.1-3.6-8.1-8.1v-10c0-4.5,3.6-8.1,8.1-8.1c4.5,0,8.1,3.6,8.1,8.1v10
		C260.3,470.8,256.7,474.4,252.2,474.4z"/>
	<path class="st6" d="M277,474.4c-4.5,0-8.1-3.6-8.1-8.1v-10c0-4.5,3.6-8.1,8.1-8.1s8.1,3.6,8.1,8.1v10
		C285.1,470.8,281.4,474.4,277,474.4z"/>
</g>
<g>
	<path class="st5" d="M292.3,214.5c0,7.4-6,13.4-13.4,13.4H151c-7.4,0-13.4-6-13.4-13.4l0,0c0-7.4,6-13.4,13.4-13.4H279
		C286.3,201.1,292.3,207.1,292.3,214.5L292.3,214.5z"/>
	<path class="st5" d="M292.3,561.7c0,7.4-6,13.4-13.4,13.4H151c-7.4,0-13.4-6-13.4-13.4l0,0c0-7.4,6-13.4,13.4-13.4H279
		C286.3,548.3,292.3,554.3,292.3,561.7L292.3,561.7z"/>
</g>
</svg>
