<?xml version="1.0" encoding="utf-8"?>
<!-- Generator: Adobe Illustrator 19.0.0, SVG Export Plug-In . SVG Version: 6.00 Build 0)  -->
<svg version="1.1" id="Layer_1" xmlns="http://www.w3.org/2000/svg" xmlns:xlink="http://www.w3.org/1999/xlink" x="0px" y="0px"
	 viewBox="-49 141 512 512" style="enable-background:new -49 141 512 512;" xml:space="preserve">
<style type="text/css">
	.st0{fill:#B0AECC;}
</style>
<g>
	<g>
		<path class="st0" d="M449.2,634.8c-0.4-0.4-0.8-0.8-1.3-1.1l-68.6-68.6c42.7-50.3,40.3-125.8-7.1-173.3
			c-25-25-57.8-37.5-90.5-37.5c-4.6,0-9.1,0.3-13.7,0.7c7.5-17.1,12.1-35.6,12.1-54.5c0,0,12.6-53.6-17.5-104l-0.1-2
			c-0.1,0-0.5,0-1,0.1c-6.4-10.3-14.6-20.5-25.1-30c-11.6-10.5-40.1-23.7-74.6-23.7c-23.6,0-49.9,6.2-75.5,23.7
			c-49.5,33.9-44.5,119.5-44.5,119.5s3.5,0.9,9.7,1.7c-0.5,4.8-0.7,9.7-0.7,14.7c0,32.2,13.3,63.4,32,88.3l-0.2,30.4
			c-0.1,0.2-0.1,0.3-0.2,0.5c-2.3,4.5-11.4,14.1-46.2,27.4c-9.8,3.7-17.3,9.4-39.3,15.3l-1.5,0.4c-20.1,6.6-33.6,25.3-33.6,46.3
			v58.4h224.6c1.6,1.8,3.2,3.5,4.9,5.2c25,25,57.7,37.5,90.5,37.5c29.4,0,58.8-10.1,82.5-30.2L434,650l0.1-0.1
			c4.2,4.2,10.9,4.2,15.1,0C453.4,645.7,453.4,639,449.2,634.8z M252,222.9c2.9,7.2,5.2,14.8,6.8,22.7c-0.4-0.5-0.8-0.9-1.2-1.4
			c-3.8-4.3-8.1-7.9-12.7-10.8C247.1,228.8,249.6,225.4,252,222.9z M66.4,241.2c3.8-19.5,12.3-45.5,32-58.9
			c19.3-13.3,40.6-20,63.4-20c16.6,0,30.2,3.6,38.7,6.7c10.8,3.9,18.2,8.5,21.6,11.5c7.7,7,14.3,14.6,19.7,23
			c-6,4.7-12.2,11.8-17,22.5c-2.8-0.4-5.7-0.6-8.6-0.6c-13.9,0-28.8,4.6-45.5,14.2c-38.2,21.8-73.5,26.4-96.4,26.4
			c-4,0-7.6-0.1-10.8-0.3C63.8,258.7,64.7,250.2,66.4,241.2z M72.1,300.6c0-4.5,0.2-9,0.7-13.3c0.5,0,0.9,0,1.4,0
			c26,0,65-5.2,107-29.3c14.1-8.1,25.6-11.4,34.9-11.4c22.4,0,32.5,19,38.6,36.2c1.1,3.1,2.3,5.6,3.6,7.8c0.2,3.3,0.4,6.6,0.4,10
			c0,19.7-6.3,40.7-17.6,60.3c-18.2,6.1-35.4,16.4-49.9,30.9c-9.2,9.2-16.6,19.4-22.4,30.2c-1.2,0.2-2.3,0.2-3.3,0.2
			c-12.4,0-35.7-11.4-57.6-36.3C85.1,360.1,72.1,329,72.1,300.6z M159.1,445.3c-2.1,6.9-3.6,13.9-4.4,21h-2.9l-2.6-13L159.1,445.3z
			 M124.8,546.3H-17v-37.1c0-11.7,7.5-22.1,18.6-25.9l0.9-0.3c16.9-4.6,26.6-9.2,33.8-12.6c2.9-1.4,5.2-2.5,7.4-3.3
			c22.9-8.8,36.6-16.5,45-23.2l30,34l11.7-9.5l2.2,10.9L124.8,546.3z M121.2,448.5l-18.8-21.3l1.5-3.3l0-4.5l0-6.9
			c10.7,10,22,18,32.9,23.3L121.2,448.5z M165.4,546.3h-19.2l6.9-58.7h0.6c0.8,20.3,6.5,40.5,17,58.7H165.4z M357.1,557.8
			c-20.1,20.2-46.9,31.3-75.4,31.3c-28.5,0-55.3-11.1-75.4-31.3c-20.1-20.1-31.2-46.9-31.2-75.4c0-28.5,11.1-55.3,31.2-75.4
			c20.1-20.2,46.9-31.3,75.4-31.3s55.3,11.1,75.4,31.3c20.2,20.2,31.3,46.9,31.3,75.4C388.3,510.8,377.2,537.6,357.1,557.8z"/>
	</g>
</g>
<g>
	<g>
		<path class="st0" d="M281.7,397c-47.1,0-85.3,38.2-85.3,85.3c0,5.9,4.8,10.7,10.7,10.7s10.7-4.8,10.7-10.7c0-35.3,28.7-64,64-64
			c5.9,0,10.7-4.8,10.7-10.7C292.3,401.8,287.6,397,281.7,397z"/>
	</g>
</g>
</svg>
