<?xml version="1.0" encoding="utf-8"?>
<!-- Generator: Adobe Illustrator 19.0.0, SVG Export Plug-In . SVG Version: 6.00 Build 0)  -->
<svg version="1.1" id="Layer_1" xmlns="http://www.w3.org/2000/svg" xmlns:xlink="http://www.w3.org/1999/xlink" x="0px" y="0px"
	 viewBox="190 380 34 34" style="enable-background:new 190 380 34 34;" xml:space="preserve">
<style type="text/css">
	.st0{fill:#48C5FF;}
</style>
<g>
	<g>
		<g>
			<path class="st0" d="M219,395.9c-1.1-0.5-3.1-0.5-3.2-0.5c-0.3,0-0.5,0.2-0.5,0.5c0,0.3,0.2,0.5,0.5,0.5c0.5,0,2,0.1,2.7,0.4
				c0.1,0,0.1,0,0.2,0c0.2,0,0.3-0.1,0.4-0.3C219.3,396.2,219.2,396,219,395.9z"/>
		</g>
	</g>
	<g>
		<g>
			<path class="st0" d="M221.3,402.4l-1.9-0.5c-0.1,0-0.1-0.1-0.1-0.2V401c0.2-0.1,0.3-0.2,0.4-0.4c0.7-0.6,1-1.5,1-2.4v-0.9
				l0.2-0.4c0.2-0.4,0.3-0.9,0.3-1.3v-2.4c0-0.3-0.2-0.5-0.5-0.5h-4.4c-1.6,0-2.9,1.3-2.9,2.9v0c0,0.4,0.1,0.7,0.3,1.1l0.2,0.5v0.8
				c0,1.2,0.6,2.3,1.5,2.9v0.7c0,0.1,0,0.1-0.4,0.3l-0.9,0.3l-2.7-1c0-0.1,0-0.3-0.1-0.3l-0.9-0.9v-1.5c0.1-0.1,0.2-0.2,0.3-0.2
				c1.1-1,1.7-2.4,1.7-3.9v-1.2c0.3-0.7,0.5-1.5,0.5-2.2v-4.9c0-0.3-0.2-0.5-0.5-0.5h-6.9c-2.4,0-4.4,2-4.4,4.4v1
				c0,0.8,0.2,1.5,0.5,2.2v1c0,1.7,0.8,3.3,2,4.3v1.5l-0.9,0.9c-0.1,0.1-0.1,0.2-0.1,0.3l-2.8,1c-0.2,0.1-0.4,0.2-0.6,0.3l-0.4-0.2
				c1.3-0.6,1.7-1.4,1.8-1.4c0.1-0.1,0.1-0.3,0-0.4c-0.3-0.7-0.4-1.9-0.4-2.9c0-0.3,0-0.6,0-0.9c-0.2-2.2-1.8-3.9-3.9-3.9
				c-2.1,0-3.7,1.7-3.9,3.9c0,0.3,0,0.6,0,0.9c0,1-0.1,2.2-0.4,2.9c-0.1,0.1-0.1,0.3,0,0.4c0,0,0.4,0.8,1.8,1.4l-1.2,0.6
				c-0.7,0.3-1.1,1-1.1,1.7v3.4c0,0.3,0.2,0.5,0.5,0.5c0.3,0,0.5-0.2,0.5-0.5v-3.4c0-0.4,0.2-0.7,0.6-0.9l1.5-0.8l0.5,0.5
				c0.4,0.4,0.9,0.5,1.3,0.5c0.5,0,1-0.2,1.3-0.5l0.5-0.5l0.5,0.3c-0.2,0.4-0.4,0.8-0.4,1.3v3.5c0,0.3,0.2,0.5,0.5,0.5
				c0.3,0,0.5-0.2,0.5-0.5v-3.5c0-0.6,0.4-1.2,1-1.4l3-1.1l1.2,1.9c0.2,0.2,0.4,0.4,0.7,0.4c0,0,0.1,0,0.1,0c0.3,0,0.5-0.1,0.7-0.3
				l0.8-0.8v4.8c0,0.3,0.2,0.5,0.5,0.5c0.3,0,0.5-0.2,0.5-0.5v-4.8l0.8,0.8c0.2,0.2,0.4,0.3,0.7,0.3c0,0,0.1,0,0.1,0
				c0.3,0,0.5-0.2,0.7-0.4l1.2-1.9l3,1.1c0.6,0.2,1,0.8,1,1.4v3.5c0,0.3,0.2,0.5,0.5,0.5c0.3,0,0.5-0.2,0.5-0.5v-3.5
				c0-0.6-0.3-1.2-0.7-1.7l0.1,0c0.1,0,0.3-0.1,0.4-0.2l1.2,1.2v4.2c0,0.3,0.2,0.5,0.5,0.5c0.3,0,0.5-0.2,0.5-0.5v-4.2l1.2-1.2
				c0.1,0,0.1,0.1,0.2,0.1l1.9,0.5c0.4,0.1,0.7,0.5,0.7,1v3.8c0,0.3,0.2,0.5,0.5,0.5c0.3,0,0.5-0.2,0.5-0.5v-3.8
				C222.7,403.4,222.1,402.6,221.3,402.4z M194.2,401.6c-0.9-0.3-1.3-0.7-1.5-1c0.1-0.3,0.2-0.7,0.3-1.1c0.3,0.6,0.7,1.1,1.2,1.5
				C194.2,401,194.2,401.6,194.2,401.6z M196.9,402.8c-0.4,0.4-1,0.4-1.4,0l-0.4-0.4c0.1-0.1,0.1-0.3,0.1-0.4v-0.5
				c0.3,0.1,0.7,0.2,1,0.2s0.7-0.1,1-0.2v0.5c0,0.2,0,0.3,0.1,0.4L196.9,402.8z M196.2,400.7c-1.4,0-2.5-1.1-2.5-2.5
				c0-0.3-0.2-0.5-0.5-0.5c0,0,0,0-0.1,0c0,0,0-0.1,0-0.1c0-0.3,0-0.6,0-0.9c0.1-0.8,0.4-1.6,0.9-2.1c0.5-0.6,1.3-0.9,2.1-0.9
				s1.5,0.3,2.1,0.9c0.5,0.6,0.9,1.3,0.9,2.1c0,0.3,0,0.6,0,0.9c0,0,0,0.1,0,0.1c-0.5-0.8-1.3-1.3-2.3-1.7c-0.9-0.3-1.7-0.3-1.7-0.3
				c-0.1,0-0.2,0.1-0.3,0.1l-0.8,0.9c-0.2,0.2-0.2,0.5,0,0.6s0.5,0.2,0.6,0l0.7-0.7c0.6,0,2.5,0.3,3.2,1.9
				C198.4,399.8,197.4,400.7,196.2,400.7z M198.1,401.6V401c0.5-0.4,1-0.9,1.2-1.5c0.1,0.4,0.1,0.8,0.3,1.1
				C199.4,400.9,199,401.3,198.1,401.6z M202.5,394.1V393c0-0.1,0-0.1,0-0.2c-0.3-0.6-0.4-1.3-0.4-1.9v-1c0-1.9,1.6-3.5,3.5-3.5h6.4
				v4.5c0,0.7-0.1,1.3-0.4,1.9c0,0.1,0,0.1,0,0.2v1.3c0,1.2-0.5,2.4-1.4,3.2c-0.1,0.1-0.2,0.2-0.4,0.3l0,0c-0.9,0.6-1.9,1-3,0.9
				C204.4,398.6,202.5,396.6,202.5,394.1z M205.1,403.4C205.1,403.4,205.1,403.4,205.1,403.4C205.1,403.4,205.1,403.4,205.1,403.4
				l-1.5-2.2l0.5-0.5l2.2,1.5L205.1,403.4z M207,401.6l-2.5-1.7V399c0.6,0.3,1.4,0.6,2.1,0.6c0.1,0,0.2,0,0.4,0
				c0.9,0,1.7-0.2,2.5-0.6v0.8L207,401.6z M208.9,403.4C208.9,403.4,208.9,403.4,208.9,403.4C208.9,403.4,208.9,403.4,208.9,403.4
				l-1.2-1.1l2.2-1.5l0.5,0.5L208.9,403.4z M217.3,403l-1-1c0-0.1,0-0.2,0-0.3v-0.2c0.3,0.1,0.6,0.2,0.9,0.2c0,0,0.1,0,0.1,0
				c0.3,0,0.7-0.1,1-0.2v0.2c0,0.1,0,0.2,0,0.3L217.3,403z M219,400c-0.5,0.5-1.1,0.7-1.8,0.7c-1.3,0-2.4-1.2-2.4-2.6v-0.9
				c0-0.1,0-0.1,0-0.2l-0.3-0.6c-0.1-0.2-0.2-0.4-0.2-0.7v0c0-1.1,0.9-2,2-2h4v1.9c0,0.3-0.1,0.6-0.2,0.9l-0.2,0.5
				c0,0.1,0,0.1,0,0.2v1C219.8,398.9,219.5,399.5,219,400z"/>
		</g>
	</g>
	<g>
		<g>
			<path class="st0" d="M220.3,404.7c-0.3,0-0.5,0.2-0.5,0.5v2.9c0,0.3,0.2,0.5,0.5,0.5c0.3,0,0.5-0.2,0.5-0.5v-2.9
				C220.7,404.9,220.5,404.7,220.3,404.7z"/>
		</g>
	</g>
	<g>
		<g>
			<path class="st0" d="M193.7,405.3c-0.3,0-0.5,0.2-0.5,0.5v2.3c0,0.3,0.2,0.5,0.5,0.5c0.3,0,0.5-0.2,0.5-0.5v-2.3
				C194.2,405.5,194,405.3,193.7,405.3z"/>
		</g>
	</g>
	<g>
		<g>
			<path class="st0" d="M210.8,391c-1.7-1.7-5.4-1.4-6.9-1.2c-0.5,0.1-0.8,0.5-0.8,0.9v1.1c0,0.3,0.2,0.5,0.5,0.5
				c0.3,0,0.5-0.2,0.5-0.5v-1.1c0,0,0,0,0,0c0.6-0.1,1.8-0.2,3-0.1c1.4,0.1,2.5,0.5,3.1,1.1c0.2,0.2,0.5,0.2,0.6,0
				C210.9,391.5,210.9,391.2,210.8,391z"/>
		</g>
	</g>
	<g>
		<g>
			<path class="st0" d="M201.6,405.6c-0.3,0-0.5,0.2-0.5,0.5v2c0,0.3,0.2,0.5,0.5,0.5c0.3,0,0.5-0.2,0.5-0.5v-2
				C202,405.8,201.8,405.6,201.6,405.6z"/>
		</g>
	</g>
	<g>
		<g>
			<path class="st0" d="M212.4,405.6c-0.3,0-0.5,0.2-0.5,0.5v2c0,0.3,0.2,0.5,0.5,0.5c0.3,0,0.5-0.2,0.5-0.5v-2
				C212.9,405.8,212.7,405.6,212.4,405.6z"/>
		</g>
	</g>
</g>
</svg>
