<?xml version="1.0" encoding="utf-8"?>
<!-- Generator: Adobe Illustrator 19.0.0, SVG Export Plug-In . SVG Version: 6.00 Build 0)  -->
<svg version="1.1" id="Capa_1" xmlns="http://www.w3.org/2000/svg" xmlns:xlink="http://www.w3.org/1999/xlink" x="0px" y="0px"
	 viewBox="158 380 34 34" style="enable-background:new 158 380 34 34;" xml:space="preserve">
<style type="text/css">
	.st0{fill:#48C5FF;}
</style>
<g>
	<g>
		<path class="st0" d="M189.5,407.7l-6.8-2.2c-0.2-0.1-0.3-0.1-0.5-0.1h-0.1l-1.4-1.9c-0.1-0.1-0.2-0.2-0.4-0.2c0,0,0,0-0.1,0v0
			h-0.5v-1.7c1.3-1,2.1-2.6,2.1-4.3V393c0.1,0,0.2,0,0.3-0.1c0.2-0.1,0.3-0.3,0.3-0.5v-4.2l2.6-1.1v0.8c-0.6,0-1.1,0.5-1.1,1.1v3.2
			c0,0.6,0.5,1.1,1.1,1.1h1.1c0.6,0,1.1-0.5,1.1-1.1v-3.2c0-0.6-0.5-1.1-1.1-1.1v-1.6c0-0.2-0.1-0.4-0.3-0.5l-10.6-4.8
			c-0.1-0.1-0.3-0.1-0.4,0l-10.6,4.8c-0.3,0.1-0.4,0.4-0.3,0.7c0.1,0.1,0.2,0.2,0.3,0.3l3.4,1.4v4.2c0,0.3,0.2,0.5,0.5,0.5v4.3
			c0,1.7,0.8,3.3,2.1,4.3v1.7h-0.5v0c0,0,0,0-0.1,0c-0.1,0-0.3,0.1-0.4,0.2l-1.4,1.9h-0.1c-0.2,0-0.3,0-0.5,0.1l-6.8,2.2
			c-0.8,0.3-1.3,1.1-1.3,2v2.6c0,0.3,0.2,0.5,0.5,0.5h30.7c0.3,0,0.5-0.2,0.5-0.5v-2.6C190.9,408.8,190.3,408,189.5,407.7z
			 M186.1,389.1v3.2H185v-3.2H186.1z M180.2,404.6l1,1.3l-4,3.6l-1.3-1.3L180.2,404.6z M175,407.4l-3.7-3v-2.2
			c0.7,0.3,1.5,0.5,2.3,0.5h2.8c0.8,0,1.6-0.2,2.3-0.5v2.2L175,407.4z M168.1,385.9c-0.3,0-0.4,0.3-0.4,0.5v0.7l-1.8-0.7l9.2-4.1
			l9.2,4.1l-1.8,0.7v-0.7c0-0.3-0.2-0.5-0.4-0.5l-6.9-1.1c-0.1,0-0.1,0-0.2,0L168.1,385.9z M168.6,388
			C168.7,388,168.7,388,168.6,388l0-1.1l6.3-1l6.3,1v1.1c0,0,0,0.1,0,0.1h0v3.6c-0.8-0.3-1.6-0.4-2.4-0.4c-1.3,0-2.6,0.4-3.7,1.2
			c-0.1,0.1-0.2,0.2-0.3,0.3c-0.1-0.1-0.2-0.2-0.3-0.3c-1.1-0.8-2.4-1.2-3.7-1.2c-0.8,0-1.6,0.1-2.4,0.4L168.6,388L168.6,388z
			 M169.2,397.3v-4.8c0.6-0.2,1.2-0.3,1.8-0.3c1.1,0,2.1,0.3,3,0.9c0.2,0.2,0.4,0.3,0.5,0.5c0.2,0.2,0.5,0.3,0.7,0.1
			c0,0,0.1-0.1,0.1-0.1c0.2-0.2,0.3-0.4,0.5-0.5c0.9-0.6,1.9-1,3-0.9c0.6,0,1.3,0.1,1.8,0.3v4.8c0,2.4-2,4.4-4.4,4.4h-2.8
			C171.2,401.8,169.2,399.8,169.2,397.3z M169.8,404.6l4.4,3.5l-1.3,1.3l-4-3.6L169.8,404.6z M189.8,411.8h-29.6v-2.1
			c0-0.4,0.2-0.8,0.6-1l6.8-2.2c0.1,0,0.1,0,0.2,0h0.2l4.6,4.1c0.2,0.2,0.5,0.2,0.7,0l1.7-1.7l1.7,1.7c0.2,0.2,0.5,0.2,0.7,0
			l4.6-4.1h0.2c0.1,0,0.1,0,0.2,0l6.7,2.2c0.4,0.2,0.7,0.5,0.7,1V411.8z"/>
	</g>
</g>
</svg>
