<?xml version="1.0" encoding="utf-8"?>
<!-- Generator: Adobe Illustrator 19.0.0, SVG Export Plug-In . SVG Version: 6.00 Build 0)  -->
<svg version="1.1" id="Capa_1" xmlns="http://www.w3.org/2000/svg" xmlns:xlink="http://www.w3.org/1999/xlink" x="0px" y="0px"
	 viewBox="-49 141 512 512" style="enable-background:new -49 141 512 512;" xml:space="preserve">
<style type="text/css">
	.st0{fill:#B0AECC;}
</style>
<g>
	<g>
		<path class="st0" d="M460.1,234.9l-91-91c-1.9-1.9-4.4-2.9-7.1-2.9H65c-16.5,0-30,13.5-30,30v90c0,5.5,4.5,10,10,10s10-4.5,10-10
			v-90c0-5.5,4.5-10,10-10h287v61c0,16.5,13.5,30,30,30h61v333h-88.2c-5.5,0-10,4.5-10,10s4.5,10,10,10H443v18c0,5.5-4.5,10-10,10
			H65c-5.5,0-10,4.5-10,10s4.5,10,10,10h368c16.5,0,30-13.5,30-30V242C463,239.3,461.9,236.8,460.1,234.9z M382,232
			c-5.5,0-10-4.5-10-10v-46.9l56.9,56.9H382z"/>
	</g>
</g>
<g>
	<g>
		<path class="st0" d="M328.1,587.9c-1.9-1.9-4.4-2.9-7.1-2.9s-5.2,1.1-7.1,2.9c-1.9,1.9-2.9,4.4-2.9,7.1s1.1,5.2,2.9,7.1
			c1.9,1.9,4.4,2.9,7.1,2.9s5.2-1.1,7.1-2.9c1.9-1.9,2.9-4.4,2.9-7.1S329.9,589.8,328.1,587.9z"/>
	</g>
</g>
<g>
	<g>
		<path class="st0" d="M376.9,417.7V370c0-5.5-4.5-10-10-10H259v-24.4h29.8c5.5,0,10-4.5,10-10v-80c0-5.5-4.5-10-10-10h-80
			c-5.5,0-10,4.5-10,10v80c0,5.5,4.5,10,10,10H239V360H131.1c-5.5,0-10,4.5-10,10v47.7c-18.3,4.5-32,21.1-32,40.8
			c0,23.2,18.8,42,42,42s42-18.8,42-42c0-19.7-13.7-36.3-32-40.8V380h98.1v37.7c-18.4,4.5-32.1,21.1-32.1,40.8c0,23.2,18.8,42,42,42
			s42-18.8,42-42c0-19.7-13.6-36.2-31.9-40.8V380h97.8v37.7c-18.3,4.5-32,21.1-32,40.8c0,23.2,18.8,42,42,42s42-18.8,42-42
			C408.9,438.8,395.3,422.2,376.9,417.7z M153.1,458.5c0,12.1-9.9,22-22,22s-22-9.9-22-22s9.9-22,22-22
			C143.2,436.5,153.1,446.4,153.1,458.5z M218.8,315.6v-60h60v60H218.8z M271,458.5c0,12.1-9.9,22-22,22s-22-9.9-22-22s9.9-22,22-22
			S271,446.4,271,458.5z M366.9,480.5c-12.1,0-22-9.9-22-22s9.9-22,22-22s22,9.9,22,22S379.1,480.5,366.9,480.5z"/>
	</g>
</g>
<g>
	<g>
		<path class="st0" d="M32.1,415.9c-1.9-1.9-4.4-2.9-7.1-2.9s-5.2,1.1-7.1,2.9c-1.9,1.9-2.9,4.4-2.9,7.1c0,2.6,1.1,5.2,2.9,7.1
			c1.9,1.9,4.4,2.9,7.1,2.9s5.2-1.1,7.1-2.9c1.9-1.9,2.9-4.4,2.9-7.1S33.9,417.8,32.1,415.9z"/>
	</g>
</g>
<g>
	<g>
		<path class="st0" d="M65,500c-5.5,0-10,4.5-10,10v84.3c0,3.7-3,6.7-6.7,6.7H35V465c0-5.5-4.5-10-10-10s-10,4.5-10,10v114h-44V328
			h44v51c0,5.5,4.5,10,10,10s10-4.5,10-10v-61c0-1.5-0.3-3-1-4.3L3,248.4V218c0-5.5-4.5-10-10-10s-10,4.5-10,10v30.4l-31,65.3
			c-0.6,1.3-1,2.8-1,4.3v315c0,11,9,20,20,20h44c11,0,20-9,20-20v-12h13.3C63,621,75,609,75,594.3V510C75,504.5,70.5,500,65,500z
			 M-7,274l16.2,34h-32.4L-7,274z M15,633h-44v-34h44V633z"/>
	</g>
</g>
</svg>
