<?xml version="1.0" encoding="utf-8"?>
<!-- Generator: Adobe Illustrator 19.0.0, SVG Export Plug-In . SVG Version: 6.00 Build 0)  -->
<svg version="1.1" id="Layer_1" xmlns="http://www.w3.org/2000/svg" xmlns:xlink="http://www.w3.org/1999/xlink" x="0px" y="0px"
	 viewBox="-49 141 512 512" style="enable-background:new -49 141 512 512;" xml:space="preserve">
<style type="text/css">
	.st0{fill:#B0AECC;}
</style>
<path class="st0" d="M61.9,226.3c14.1,0,25.6-11.5,25.6-25.6c0-14.1-11.5-25.6-25.6-25.6c-14.1,0-25.6,11.5-25.6,25.6
	C36.3,214.9,47.8,226.3,61.9,226.3z M61.9,192.2c4.7,0,8.5,3.8,8.5,8.5c0,4.7-3.8,8.5-8.5,8.5c-4.7,0-8.5-3.8-8.5-8.5
	C53.4,196,57.2,192.2,61.9,192.2z"/>
<path class="st0" d="M130.2,226.3c14.1,0,25.6-11.5,25.6-25.6c0-14.1-11.5-25.6-25.6-25.6c-14.1,0-25.6,11.5-25.6,25.6
	C104.6,214.9,116.1,226.3,130.2,226.3z M130.2,192.2c4.7,0,8.5,3.8,8.5,8.5c0,4.7-3.8,8.5-8.5,8.5c-4.7,0-8.5-3.8-8.5-8.5
	C121.7,196,125.5,192.2,130.2,192.2z"/>
<path class="st0" d="M198.5,226.3c14.1,0,25.6-11.5,25.6-25.6c0-14.1-11.5-25.6-25.6-25.6c-14.1,0-25.6,11.5-25.6,25.6
	C172.9,214.9,184.3,226.3,198.5,226.3z M198.5,192.2c4.7,0,8.5,3.8,8.5,8.5c0,4.7-3.8,8.5-8.5,8.5c-4.7,0-8.5-3.8-8.5-8.5
	C189.9,196,193.8,192.2,198.5,192.2z"/>
<path class="st0" d="M283.8,209.3h85.3c4.7,0,8.5-3.8,8.5-8.5c0-4.7-3.8-8.5-8.5-8.5h-85.3c-4.7,0-8.5,3.8-8.5,8.5
	C275.3,205.4,279.1,209.3,283.8,209.3z"/>
<path class="st0" d="M437.4,507.9h-25.6V183.7c0-23.6-19.1-42.6-42.7-42.7H44.9c-23.6,0-42.6,19.1-42.7,42.7v102.4h-25.6
	c-14.1,0-25.6,11.5-25.6,25.6v153.6c0,14.1,11.5,25.6,25.6,25.6H2.2v119.5c0,23.6,19.1,42.6,42.7,42.7h324.3
	c23.6,0,42.6-19.1,42.7-42.7h25.6c14.1,0,25.6-11.5,25.6-25.6v-51.2C463,519.4,451.5,507.9,437.4,507.9z M44.9,158.1h324.3
	c14.1,0,25.6,11.5,25.6,25.6v59.7H19.3v-59.7C19.3,169.5,30.7,158.1,44.9,158.1z M-31.9,465.3V311.7c0-4.7,3.8-8.5,8.5-8.5h324.3
	c4.7,0,8.5,3.8,8.5,8.5v153.6c0,4.7-3.8,8.5-8.5,8.5H-23.4C-28.1,473.8-31.9,470-31.9,465.3z M369.1,635.9H44.9
	c-14.1,0-25.6-11.5-25.6-25.6V490.9h281.6c14.1,0,25.6-11.5,25.6-25.6V311.7c0-14.1-11.5-25.6-25.6-25.6H19.3v-25.6h375.5v247.5
	h-68.3c-14.1,0-25.6,11.5-25.6,25.6v51.2c0,14.1,11.5,25.6,25.6,25.6h68.3C394.7,624.5,383.3,635.9,369.1,635.9z M445.9,584.7
	c0,4.7-3.8,8.5-8.5,8.5H326.5c-4.7,0-8.5-3.8-8.5-8.5v-51.2c0-4.7,3.8-8.5,8.5-8.5h110.9c4.7,0,8.5,3.8,8.5,8.5V584.7z"/>
<path class="st0" d="M258.2,507.9H147.3c-14.1,0-25.6,11.5-25.6,25.6v51.2c0,14.1,11.5,25.6,25.6,25.6h110.9
	c14.1,0,25.6-11.5,25.6-25.6v-51.2C283.8,519.4,272.3,507.9,258.2,507.9z M266.7,584.7c0,4.7-3.8,8.5-8.5,8.5H147.3
	c-4.7,0-8.5-3.8-8.5-8.5v-51.2c0-4.7,3.8-8.5,8.5-8.5h110.9c4.7,0,8.5,3.8,8.5,8.5V584.7z"/>
<path class="st0" d="M172.9,550.6h-8.5c-4.7,0-8.5,3.8-8.5,8.5c0,4.7,3.8,8.5,8.5,8.5h8.5c4.7,0,8.5-3.8,8.5-8.5
	C181.4,554.4,177.6,550.6,172.9,550.6z"/>
<path class="st0" d="M241.1,550.6H207c-4.7,0-8.5,3.8-8.5,8.5c0,4.7,3.8,8.5,8.5,8.5h34.1c4.7,0,8.5-3.8,8.5-8.5
	C249.7,554.4,245.8,550.6,241.1,550.6z"/>
<path class="st0" d="M352.1,550.6h-8.5c-4.7,0-8.5,3.8-8.5,8.5c0,4.7,3.8,8.5,8.5,8.5h8.5c4.7,0,8.5-3.8,8.5-8.5
	C360.6,554.4,356.8,550.6,352.1,550.6z"/>
<path class="st0" d="M420.3,550.6h-34.1c-4.7,0-8.5,3.8-8.5,8.5c0,4.7,3.8,8.5,8.5,8.5h34.1c4.7,0,8.5-3.8,8.5-8.5
	C428.9,554.4,425,550.6,420.3,550.6z"/>
<path class="st0" d="M36.3,456.7h188.4c2.8,0,5.5-1.4,7.1-3.8s1.9-5.4,0.8-8c-0.4-1-1.1-2-1.8-2.8L179.6,391
	c-3.3-3.3-8.7-3.3-12.1,0L149,409.4l-29-31.1c-1.7-1.7-3.9-2.6-6.2-2.6c-2.3,0-4.6,0.9-6.2,2.6l-57.1,61.3h-14
	c-4.7,0-8.5,3.8-8.5,8.5C27.8,452.9,31.6,456.7,36.3,456.7z M173.6,409.1l30.6,30.6h-26.9l-16.6-17.7L173.6,409.1z M113.8,396.7
	l28.8,30.9c0.1,0.1,0.1,0.1,0.1,0.2s0.1,0,0.1,0.1l11,11.8H73.7L113.8,396.7z"/>
<path class="st0" d="M216.2,388.5c18.9,0,34.1-15.3,34.1-34.1s-15.3-34.1-34.1-34.1s-34.1,15.3-34.1,34.1S197.4,388.5,216.2,388.5z
	 M216.2,337.3c9.4,0,17.1,7.6,17.1,17.1s-7.6,17.1-17.1,17.1s-17.1-7.6-17.1-17.1S206.8,337.3,216.2,337.3z"/>
</svg>
