<?xml version="1.0" encoding="utf-8"?>
<!-- Generator: Adobe Illustrator 19.0.0, SVG Export Plug-In . SVG Version: 6.00 Build 0)  -->
<svg version="1.1" id="Layer_1" xmlns="http://www.w3.org/2000/svg" xmlns:xlink="http://www.w3.org/1999/xlink" x="0px" y="0px"
	 viewBox="-391 145 512 512" style="enable-background:new -391 145 512 512;" xml:space="preserve">
<style type="text/css">
	.st0{fill:#FFE9CC;}
	.st1{fill:#939598;}
	.st2{fill:#FFE2BD;}
	.st3{fill:#ACABB1;}
	.st4{fill:#C6C5CA;}
	.st5{fill:#FFD733;}
	.st6{fill:#FFA993;}
	.st7{fill:#F1F2F2;}
	.st8{fill:#FF7956;}
</style>
<g id="surface1">
	<path class="st0" d="M39.6,162.7c0-9.7-7.9-17.7-17.7-17.7h-273.7v88.3c0,9.7-7.9,17.7-17.7,17.7h-97.1v388.4
		c0,9.7,7.9,17.7,17.7,17.7H22c9.7,0,17.7-7.9,17.7-17.7V162.7z"/>
	<path class="st1" d="M-231.2,610l12.5-87.4l56.2,18.8l18.8,56.2L-231.2,610z"/>
	<path class="st2" d="M-251.7,657H22c9.7,0,17.7-7.9,17.7-17.7V384.1C-8.6,516.2-116.7,617.5-251.7,657z"/>
	<path class="st3" d="M-31.4,335.3l24.9-24.9l74.9,74.9l-24.9,24.9L-31.4,335.3z"/>
	<path class="st4" d="M37.9,282.7c-3,0.3-6,0.9-8.8,1.7c-8.7,2.4-16.6,7.1-23,13.5l-12.5,12.6l74.8,74.8l12.5-12.5
		c15.9-15.9,20.1-40.1,10.4-60.4C81.6,292.1,60.1,280.3,37.9,282.7z"/>
	<path class="st5" d="M-31.4,335.3l-187.4,187.4l50,24.9l112.4-112.4l-112.3,112.3l11.3,22.5l13.7,27.4L37.9,415.9l5.6-5.6L29,395.8
		L-31.4,335.3z M-30.6,409.4l12.5-12.5L-30.6,409.4z"/>
	<path class="st6" d="M-251.7,233.3V145l-114.8,105.9h97.1C-259.6,250.9-251.7,243-251.7,233.3z"/>
	<path class="st7" d="M-145.1,532.8c-3.5,0-6.8-2.1-8.2-5.4c-1.3-3.3-0.7-7.1,1.9-9.6l94.7-94.7c2.2-2.5,5.5-3.5,8.7-2.8
		s5.7,3.3,6.5,6.5c0.8,3.2-0.3,6.6-2.8,8.7l-94.7,94.8C-140.5,531.9-142.8,532.8-145.1,532.8z"/>
	<path class="st7" d="M-25.4,413c-3.5,0-6.7-2.1-8.2-5.4c-1.3-3.3-0.7-7.1,1.9-9.6l12.5-12.5c3.4-3.3,8.9-3.3,12.4,0.1
		s3.4,8.9,0.1,12.4l-12.5,12.5C-20.8,412.1-23.1,413-25.4,413z"/>
	<path class="st8" d="M-119.3,383.3h-185.4c-4.9,0-8.8-4-8.8-8.8s4-8.8,8.8-8.8h185.4c4.9,0,8.8,4,8.8,8.8S-114.4,383.3-119.3,383.3
		z"/>
	<path class="st8" d="M-172.2,436.3h-132.4c-4.9,0-8.8-4-8.8-8.8s4-8.8,8.8-8.8h132.4c4.9,0,8.8,4,8.8,8.8S-167.4,436.3-172.2,436.3
		z"/>
	<path class="st8" d="M-225.2,489.3h-79.4c-4.9,0-8.8-4-8.8-8.8s4-8.8,8.8-8.8h79.4c4.9,0,8.8,4,8.8,8.8S-220.4,489.3-225.2,489.3z"
		/>
	<path class="st8" d="M-66.3,330.4H-180c-4.9,0-8.8-4-8.8-8.8s4-8.8,8.8-8.8h113.7c4.9,0,8.8,4,8.8,8.8S-61.5,330.4-66.3,330.4z"/>
	<path class="st8" d="M-228.8,349.1h-67.6c-9.4,0-16.9-19.5-16.9-43.6c0-24.1,7.6-43.6,16.9-43.6h67.6c9.4,0,16.9,19.5,16.9,43.6
		C-212,329.6-219.6,349.1-228.8,349.1z"/>
</g>
</svg>
