<?xml version="1.0" encoding="utf-8"?>
<!-- Generator: Adobe Illustrator 19.0.0, SVG Export Plug-In . SVG Version: 6.00 Build 0)  -->
<svg version="1.1" id="Capa_1" xmlns="http://www.w3.org/2000/svg" xmlns:xlink="http://www.w3.org/1999/xlink" x="0px" y="0px"
	 viewBox="-49 141 512 512" style="enable-background:new -49 141 512 512;" xml:space="preserve">
<style type="text/css">
	.st0{fill:#FFC084;}
	.st1{fill:#F7B076;}
	.st2{fill:#00F0FF;}
	.st3{fill:#00D6FF;}
	.st4{fill:#00BEEA;}
	.st5{fill:#F9A058;}
	.st6{fill:#EF8F48;}
	.st7{fill:#FFCE00;}
	.st8{fill:#DDB305;}
	.st9{fill:#BFA32B;}
	.st10{fill:#FF4F6D;}
</style>
<path class="st0" d="M350,366c-7.5-1.5-12.9-10.2-12.9-17.9V314h-35.6l0,0h-35.6v34.2c0,7.7-5.4,16.4-12.9,17.9l-8.7,2.4V426h57.2
	l0,0h57.2v-57.6L350,366z"/>
<path class="st1" d="M291.5,364.7c0,7.7,5.4,16.4,12.9,17.9l23.1,6.5l31.2,9.7v-30.4L350,366c-7.5-1.5-12.9-10.2-12.9-17.9V314
	h-35.6l0,0h-10V364.7z"/>
<path class="st2" d="M414,382l-51.3-16c-2.8-0.9-5.9,0.3-7.4,2.9c-7.1,12.5-28.5,24.7-53.8,24.7c-25.4,0-46.8-12.1-53.8-24.7
	c-1.5-2.6-4.5-3.8-7.4-2.9L189,382c-29,8.6-49,35.2-49,65.5v46.1c0,7.5,6,13.5,13.5,13.5h296c7.5,0,13.5-6,13.5-13.5v-46.1
	C463,417.2,443.1,390.5,414,382z"/>
<path class="st3" d="M414,382l-51.3-16c-2.8-0.9-5.9,0.3-7.4,2.9c-4.4,7.9-14.6,15.7-27.9,20.3l40.9,12.8c29,8.6,49,23.4,49,53.7
	v51.4h32.1c7.5,0,13.5-6,13.5-13.5v-46.1C463,417.2,443.1,390.5,414,382z"/>
<g>
	<path class="st4" d="M196,507.1v-57c0-4.3-3.5-7.7-7.7-7.7s-7.7,3.5-7.7,7.7v57H196z"/>
	<path class="st4" d="M422.5,507.1v-57c0-4.3-3.5-7.7-7.7-7.7s-7.7,3.5-7.7,7.7v57H422.5z"/>
</g>
<path class="st0" d="M372.9,237.4h-4.6V232v-12.8c0-18.1-7.4-35.6-21.1-47.3c-10.7-9.2-25.8-17.3-45.7-17.5
	c-19.9,0.2-35,8.3-45.7,17.5c-13.7,11.8-21.1,29.3-21.1,47.3V232v5.4h-4.6c-6.7,0-12.1,5.4-12.1,12.1v13.4c0,6.7,5.4,12.1,12.1,12.1
	h4.6c0.4,17.6,7.8,34.5,21.1,45.9c10.7,9.2,25.8,17.3,45.7,17.5c19.9-0.2,35-8.3,45.7-17.5c13.3-11.5,20.7-28.4,21.1-45.9h4.6
	c6.7,0,12.1-5.4,12.1-12.1v-13.4C385,242.8,379.6,237.4,372.9,237.4z"/>
<path class="st1" d="M372.9,237.4h-4.6V232v-12.8c0-18.1-7.4-35.6-21.1-47.3c-10.7-9.2-25.8-17.3-45.7-17.5c-8.5,0.1-16,1.6-22.8,4
	c9.2,3.3,16.8,8.2,23,13.5c13.7,11.8,21.1,29.3,21.1,47.3l0,55.7c-0.4,17.6-7.8,34.5-21.1,45.9c-6.2,5.3-13.8,10.2-23,13.5
	c6.7,2.4,14.3,3.9,22.8,4c19.9-0.2,35-8.3,45.7-17.5c13.3-11.5,20.7-28.4,21.1-45.9h4.6c6.7,0,12.1-5.4,12.1-12.1v-13.4
	C385,242.8,379.6,237.4,372.9,237.4z"/>
<path class="st5" d="M331.8,150.4h-30.3h-30.3c-25.8,0-46.7,20.9-46.7,46.7v41.6c0,0,10.2-0.2,16.8,6.3c1.4,1.4,3.7,0.4,3.7-1.6
	v-12.3c0-3.3,2.7-6.1,6-6.1c60.4-0.4,73.6-30.2,76.1-38.2l0,0c17,0,30.8,13.8,30.8,30.8v25.7c0,1.9,2.3,2.9,3.7,1.6
	c6.6-6.5,16.8-6.3,16.8-6.3v-41.6C378.5,171.3,357.6,150.4,331.8,150.4z"/>
<path class="st6" d="M331.8,150.4h-30.3h-15.4c22.4,0,41.1,15.8,45.7,36.9c14.8,2.3,26.2,15,26.2,30.5v25.7c0,1.9,2.3,2.9,3.7,1.6
	c6.6-6.5,16.8-6.3,16.8-6.3v-41.6C378.5,171.3,357.6,150.4,331.8,150.4z"/>
<path id="SVGCleanerId_0" class="st0" d="M161,491.1c-7.5-1.5-12.9-10.2-12.9-17.9V439h-35.6l0,0H76.9v34.2
	c0,7.7-5.4,16.4-12.9,17.9l-8.7,2.4v57.5h57.2l0,0h57.2v-57.5L161,491.1z"/>
<g>
	<path id="SVGCleanerId_0_1_" class="st0" d="M161,491.1c-7.5-1.5-12.9-10.2-12.9-17.9V439h-35.6l0,0H76.9v34.2
		c0,7.7-5.4,16.4-12.9,17.9l-8.7,2.4v57.5h57.2l0,0h57.2v-57.5L161,491.1z"/>
</g>
<path class="st1" d="M102.7,489.4c0,7.7,5.4,16.4,12.9,17.9l33.9,10.3l20.1,6.4v-30.6l-8.7-2.4c-7.5-1.5-12.9-10.2-12.9-17.9V439
	h-35.6l0,0h-9.8V489.4z"/>
<path class="st7" d="M225,507l-51.3-16c-2.8-0.9-5.9,0.3-7.4,2.9c-7.1,12.5-28.5,24.7-53.8,24.7s-46.8-12.1-53.8-24.7
	c-1.5-2.6-4.5-3.8-7.4-2.9L0,507c-29,8.5-49,35.2-49,65.5v46.1c0,7.5,6,13.5,13.5,13.5h296c7.5,0,13.5-6,13.5-13.5v-46.1
	C274,542.2,254,515.6,225,507z"/>
<path class="st8" d="M225,507l-51.3-16c-2.8-0.9-5.9,0.3-7.4,2.9c-4.4,7.9-14.6,15.7-27.9,20.3l40.9,12.8c29,8.6,49,23.4,49,53.7
	v51.4h32.1c7.5,0,13.5-6,13.5-13.5v-46.1C274,542.2,254,515.6,225,507z"/>
<g>
	<path class="st9" d="M7,632.1v-57c0-4.3-3.5-7.7-7.7-7.7s-7.7,3.5-7.7,7.7v57H7z"/>
	<path class="st9" d="M233.5,632.1v-57c0-4.3-3.5-7.7-7.7-7.7s-7.7,3.5-7.7,7.7v57H233.5z"/>
</g>
<path class="st0" d="M183.9,362.4h-4.6v-5.4v-12.8c0-18.1-7.4-35.6-21.1-47.3c-10.7-9.2-25.8-17.3-45.7-17.5
	c-19.9,0.2-35,8.3-45.7,17.5c-13.7,11.8-21.1,29.3-21.1,47.3v12.8v5.4h-4.6c-6.7,0-12.1,5.4-12.1,12.1v13.4
	c0,6.7,5.4,12.1,12.1,12.1h4.6c0.4,17.6,7.8,34.5,21.1,45.9c10.7,9.2,25.8,17.3,45.7,17.5c19.9-0.2,35-8.3,45.7-17.5
	c13.3-11.5,20.7-28.4,21.1-45.9h4.6c6.7,0,12.1-5.4,12.1-12.1v-13.4C196,367.8,190.6,362.4,183.9,362.4z"/>
<path class="st1" d="M183.9,362.4h-4.6v-5.4v-12.8c0-18.1-7.4-35.6-21.1-47.3c-10.7-9.2-25.8-17.3-45.7-17.5
	c-8.5,0.1-16.1,1.6-22.8,4c9.1,3.3,16.8,8.2,22.9,13.5c13.7,11.8,21.1,29.3,21.1,47.3v12.8l0,42.9c-0.4,17.6-7.8,34.5-21.1,45.9
	c-6.2,5.3-13.8,10.2-22.9,13.5c6.8,2.4,14.3,3.9,22.8,4c19.9-0.2,35-8.3,45.7-17.5c13.3-11.5,20.7-28.4,21.1-45.9h4.6
	c6.7,0,12.1-5.4,12.1-12.1v-13.4C196,367.8,190.6,362.4,183.9,362.4z"/>
<path class="st5" d="M154.5,275.4h-42h-42c-19.3,0-34.9,15.6-34.9,34.9v53.4c0,0,11.1-0.2,18.3,5.7c1.8,1.5,4.6,0.2,4.6-2.2v-41.2
	c0-7.9,6.4-14.2,14.2-14.2h10.9c3.4,0,6.7,1.2,9.3,3.3l2.1,1.7c3.7,3,12.9,4.6,17.6,4.6s14-1.6,17.6-4.6l2.1-1.7
	c2.6-2.2,5.9-3.3,9.3-3.3h10.9c7.9,0,14.2,6.4,14.2,14.2v41.2c0,2.4,2.7,3.7,4.6,2.2c7.2-5.9,18.3-5.7,18.3-5.7v-53.4
	C189.5,291.1,173.8,275.4,154.5,275.4z"/>
<path class="st6" d="M154.5,275.4h-42h-3.6c19.3,0,34.9,15.6,34.9,34.9v1.6h8.6c7.9,0,14.2,6.4,14.2,14.2v41.2
	c0,2.4,2.7,3.7,4.6,2.2c7.2-5.9,18.3-5.7,18.3-5.7v-53.4C189.5,291.1,173.8,275.4,154.5,275.4z"/>
<path class="st10" d="M427.6,532.1c0-4.3-3.5-7.7-7.7-7.7s-7.7,3.5-7.7,7.7c0,37.9-30.8,68.7-68.7,68.8l17.6-16.1
	c3.2-2.9,3.4-7.8,0.5-10.9c-2.9-3.2-7.8-3.4-10.9-0.5L317,604.1c-1.7,1.6-2.7,3.9-2.5,6.2c0.2,2.3,1.4,4.5,3.3,5.8l37.4,26
	c1.3,0.9,2.9,1.4,4.4,1.4c2.4,0,4.9-1.2,6.4-3.3c2.4-3.5,1.6-8.3-1.9-10.8l-18.9-13.1C390.7,615.4,427.6,578,427.6,532.1z"/>
</svg>
