<?xml version="1.0" encoding="iso-8859-1"?>
<!-- Generator: Adobe Illustrator 19.0.0, SVG Export Plug-In . SVG Version: 6.00 Build 0)  -->
<svg version="1.1" id="Capa_1" xmlns="http://www.w3.org/2000/svg" xmlns:xlink="http://www.w3.org/1999/xlink" x="0px" y="0px"
	 viewBox="0 0 512 512" style="enable-background:new 0 0 512 512;" xml:space="preserve">
<path style="fill:#F0EDEE;" d="M312,0C201.72,0,112,89.72,112,200c0,44.708,15.099,88.346,42.611,123.411l-18.129,49.855
	c-2.149,5.91,3.362,12.022,9.459,10.495l59.074-14.769C237.008,389.29,273.919,400,312,400c110.28,0,200-89.72,200-200
	S422.28,0,312,0z"/>
<path style="fill:#E0DADD;" d="M344,384c-110.457,0-200-89.543-200-200c0-71.884,37.931-134.899,94.862-170.152
	C164.651,43.106,112,115.52,112,200c0,44.708,15.099,88.346,42.611,123.411l-18.129,49.855c-2.149,5.91,3.362,12.022,9.459,10.495
	l59.074-14.769C237.008,389.29,273.919,400,312,400c38.302,0,74.118-10.831,104.562-29.579C394.065,379.184,369.596,384,344,384z"/>
<path style="fill:#FFEFD0;" d="M320,136c-57.346,0-104,46.654-104,104s46.654,104,104,104s104-46.654,104-104S377.346,136,320,136z"
	/>
<path style="fill:#FFE8B8;" d="M352,328c-57.346,0-104-46.654-104-104c0-34.27,16.665-64.718,42.313-83.676
	C247.387,153.132,216,192.966,216,240c0,57.346,46.654,104,104,104c23.076,0,44.417-7.559,61.687-20.324
	C372.275,326.484,362.312,328,352,328z"/>
<g>
	<circle style="fill:#664756;" cx="279.5" cy="248" r="7.5"/>
	<circle style="fill:#664756;" cx="360.5" cy="248" r="7.5"/>
</g>
<path style="fill:#FFE0A1;" d="M336,304h-32c-4.418,0-8-3.582-8-8s3.582-8,8-8h32c4.418,0,8,3.582,8,8S340.418,304,336,304z"/>
<path style="fill:#755A67;" d="M330.634,80.446C329.801,80.155,328.913,80,328,80H197.667c-3.296,0-6.33,2.101-7.489,5.187
	c-1.231,3.279-0.13,7.082,2.665,9.195l28.132,21.265l-22.543,4.509c-3.74,0.747-6.432,4.031-6.432,7.844v144
	c0,3.236,1.949,6.153,4.938,7.391c2.99,1.239,6.431,0.554,8.718-1.734l75.583-75.583l34.644,20.786c2.533,1.521,5.698,1.521,8.231,0
	l34.644-20.786l75.583,75.583c1.53,1.531,3.576,2.344,5.659,2.344c1.03,0,2.07-0.2,3.06-0.609c2.989-1.238,4.938-4.155,4.938-7.391
	v-64C448,141.459,396.636,85.882,330.634,80.446z"/>
<path style="fill:#664756;" d="M224,128c0-3.813,2.692-7.097,6.431-7.845l22.543-4.509l-28.132-21.265
	c-2.794-2.113-3.896-5.916-2.665-9.195c1.159-3.086,4.193-5.187,7.489-5.187h-32c-3.296,0-6.33,2.101-7.489,5.187
	c-1.231,3.279-0.13,7.082,2.665,9.195l28.132,21.265l-22.543,4.509C194.692,120.903,192,124.187,192,128v144
	c0,3.236,1.949,6.153,4.938,7.391c2.99,1.239,6.431,0.554,8.718-1.734L224,259.314V128z"/>
<g>
	<path style="fill:#947E89;" d="M416,240c-4.418,0-8-3.582-8-8c0-39.701-32.299-72-72-72h-32c-39.701,0-72,32.299-72,72
		c0,4.418-3.582,8-8,8s-8-3.582-8-8c0-48.523,39.477-88,88-88h32c48.523,0,88,39.477,88,88C424,236.418,420.418,240,416,240z"/>
	<path style="fill:#947E89;" d="M288,320h-64c-4.418,0-8-3.582-8-8v-32c0-4.418,3.582-8,8-8s8,3.582,8,8v24h56c4.418,0,8,3.582,8,8
		S292.418,320,288,320z"/>
</g>
<path style="fill:#FEC143;" d="M440,224h-24c-4.418,0-8,3.582-8,8v48c0,4.418,3.582,8,8,8h24c8.822,0,16-7.178,16-16v-32
	C456,231.178,448.822,224,440,224z"/>
<path style="fill:#FEB114;" d="M440,224h-2.165c1.368,2.357,2.165,5.084,2.165,8v32c0,8.822-7.178,16-16,16h-16c0,4.418,3.582,8,8,8
	h24c8.822,0,16-7.178,16-16v-32C456,231.178,448.822,224,440,224z"/>
<path style="fill:#FEC143;" d="M224,224h-24c-8.822,0-16,7.178-16,16v32c0,8.822,7.178,16,16,16h24c4.418,0,8-3.582,8-8v-48
	C232,227.582,228.418,224,224,224z"/>
<path style="fill:#FEB114;" d="M200,264v-32c0-2.916,0.797-5.643,2.165-8H200c-8.822,0-16,7.178-16,16v32c0,8.822,7.178,16,16,16h24
	c4.418,0,8-3.582,8-8h-16C207.178,280,200,272.822,200,264z"/>
<g>
	<path style="fill:#FDE261;" d="M60.989,281.306c-2.596-2.596-6.625-3.093-9.773-1.203l-28.284,16.971
		c-2.112,1.268-3.523,3.438-3.824,5.882c-0.301,2.445,0.541,4.893,2.283,6.634l56.568,56.568c1.509,1.51,3.548,2.343,5.656,2.343
		c0.325,0,0.651-0.02,0.978-0.06c2.445-0.301,4.615-1.711,5.882-3.824l16.971-28.284c1.889-3.148,1.393-7.177-1.203-9.773
		L60.989,281.306z"/>
	<path style="fill:#FDE261;" d="M230.694,451.011l-45.255-45.255c-2.596-2.597-6.625-3.093-9.773-1.203l-28.284,16.971
		c-2.112,1.268-3.523,3.438-3.824,5.882c-0.301,2.445,0.541,4.893,2.283,6.634l56.568,56.568c1.509,1.51,3.548,2.343,5.656,2.343
		c0.325,0,0.651-0.02,0.978-0.06c2.445-0.301,4.615-1.711,5.882-3.824l16.971-28.284
		C233.786,457.636,233.29,453.607,230.694,451.011z"/>
</g>
<path id="SVGCleanerId_0" style="fill:#FED072;" d="M213.724,479.295L32.705,298.276c-3.123-3.124-8.188-3.125-11.313,0
	C7.597,312.07,0,330.151,0,349.188s7.597,37.118,21.391,50.912l90.509,90.509C125.694,504.403,143.775,512,162.812,512
	s37.118-7.597,50.912-21.391C216.848,487.485,216.848,482.419,213.724,479.295z"/>
<g>
	<path id="SVGCleanerId_0_1_" style="fill:#FED072;" d="M213.724,479.295L32.705,298.276c-3.123-3.124-8.188-3.125-11.313,0
		C7.597,312.07,0,330.151,0,349.188s7.597,37.118,21.391,50.912l90.509,90.509C125.694,504.403,143.775,512,162.812,512
		s37.118-7.597,50.912-21.391C216.848,487.485,216.848,482.419,213.724,479.295z"/>
</g>
<path style="fill:#FEC143;" d="M179.783,495.029c-19.037,0-37.118-7.597-50.912-21.391l-90.509-90.509
	c-13.794-13.794-21.391-31.875-21.391-50.912c0-12.876,3.487-25.31,10.005-36.281c-2.023,0.018-4.04,0.796-5.584,2.34
	C7.597,312.07,0,330.151,0,349.188s7.597,37.118,21.391,50.912l90.509,90.509C125.694,504.403,143.775,512,162.812,512
	s37.118-7.597,50.912-21.391c1.544-1.544,2.322-3.561,2.34-5.585C205.093,491.542,192.659,495.029,179.783,495.029z"/>
<g>
</g>
<g>
</g>
<g>
</g>
<g>
</g>
<g>
</g>
<g>
</g>
<g>
</g>
<g>
</g>
<g>
</g>
<g>
</g>
<g>
</g>
<g>
</g>
<g>
</g>
<g>
</g>
<g>
</g>
</svg>
