<?xml version="1.0" encoding="utf-8"?>
<!-- Generator: Adobe Illustrator 19.0.0, SVG Export Plug-In . SVG Version: 6.00 Build 0)  -->
<svg version="1.1" id="Capa_1" xmlns="http://www.w3.org/2000/svg" xmlns:xlink="http://www.w3.org/1999/xlink" x="0px" y="0px"
	 viewBox="-41 164.9 512 512" style="enable-background:new -41 164.9 512 512;" xml:space="preserve">
<style type="text/css">
	.st0{fill:#FFD400;}
	.st1{fill:#FDBF00;}
	.st2{fill:#ECECF1;}
	.st3{fill:#E2E2E7;}
	.st4{fill:#725D57;}
	.st5{fill:#FF7C96;}
	.st6{fill:#FF5C7D;}
	.st7{fill:#68544F;}
</style>
<path class="st0" d="M365,315.9c-24.6,0-46.2,12-60,30.6V225.9h-60v-61h-60v61h-60v120.6c-13.8-18.6-35.4-30.6-60-30.6H-1.3
	l25.8,25.5c16.2,16.5,25.5,40,25.5,62.8v107.7c0,46.5,19.8,90.9,54,122.1c30.9,27.9,69.6,42.9,110.7,42.9h0.3
	c5.4,0,10.8-0.3,16.2-0.9c83.4-7.8,148.8-82.8,148.8-170.4V404.2c0-22.8,9.3-46.3,25.5-62.8l25.8-25.5H365z"/>
<path class="st1" d="M431.3,315.9l-25.8,25.5c-16.2,16.5-25.5,40-25.5,62.8v101.4c0,87.6-65.4,162.6-148.8,170.4
	c-5.4,0.6-10.8,0.9-16.2,0.9v-512h30v61h60v120.6c13.8-18.6,35.4-30.6,60-30.6H431.3z"/>
<path class="st2" d="M317.6,503.5c-2.1-2.7-45.6-66.6-102.6-66.6s-100.5,63.9-102.6,66.6l-5.4,8.4l5.4,8.4
	c2.1,2.7,45.6,66.6,102.6,66.6s100.5-63.9,102.6-66.6l5.4-8.4L317.6,503.5z"/>
<path class="st3" d="M323,511.9l-5.4,8.4c-2.1,2.7-45.6,66.6-102.6,66.6v-150c57,0,100.5,63.9,102.6,66.6L323,511.9z"/>
<path class="st4" d="M215,481.9c-16.5,0-30,13.5-30,30s13.5,30,30,30s30-13.5,30-30S231.5,481.9,215,481.9z"/>
<rect x="50" y="255.9" class="st5" width="30" height="30"/>
<rect x="350" y="255.9" class="st6" width="30" height="30"/>
<path class="st7" d="M245,511.9c0,16.5-13.5,30-30,30v-60C231.5,481.9,245,495.4,245,511.9z"/>
</svg>
