<?xml version="1.0" encoding="utf-8"?>
<!-- Generator: Adobe Illustrator 19.0.0, SVG Export Plug-In . SVG Version: 6.00 Build 0)  -->
<svg version="1.1" id="Capa_1" xmlns="http://www.w3.org/2000/svg" xmlns:xlink="http://www.w3.org/1999/xlink" x="0px" y="0px"
	 viewBox="-41 164.9 512 512" style="enable-background:new -41 164.9 512 512;" xml:space="preserve">
<style type="text/css">
	.st0{fill:#FECA57;}
	.st1{fill:#F4B537;}
	.st2{fill:#576574;}
	.st3{fill:#3E4B5A;}
	.st4{fill:#F2BB88;}
	.st5{fill:#E3A76F;}
	.st6{fill:#E4EAF8;}
	.st7{fill:#D8DCE5;}
	.st8{fill:#F2D1A5;}
	.st9{fill:#EE5253;}
	.st10{fill:#FF6B6B;}
	.st11{fill:#D83941;}
</style>
<path class="st0" d="M416.2,347.5h-36.3c-1.2,0-2.3-0.9-2.5-2.1c-4.3-21.1-12.6-40.6-24-58c-0.7-1-0.5-2.4,0.3-3.2l25.7-25.7
	c4.9-4.9,4.9-12.9,0-17.9l-26.3-26.3c-4.9-4.9-12.9-4.9-17.9,0L309.5,240c-0.9,0.9-2.2,1-3.2,0.3c-17.3-11.4-36.9-19.7-58-24
	c-1.2-0.2-2.1-1.3-2.1-2.5v-36.3c0-7-5.7-12.6-12.6-12.6h-37.2c-7,0-12.6,5.7-12.6,12.6v36.3c0,1.2-0.9,2.3-2.1,2.5
	c-21.1,4.3-40.6,12.6-58,24c-1,0.7-2.4,0.5-3.2-0.3l-25.7-25.7c-4.9-4.9-12.9-4.9-17.9,0l-26.3,26.3c-4.9,4.9-4.9,12.9,0,17.9
	l25.7,25.7c0.9,0.9,1,2.2,0.3,3.2c-11.4,17.3-19.7,36.9-24,58c-0.2,1.2-1.3,2.1-2.5,2.1H13.8c-7,0-12.6,5.7-12.6,12.6v37.2
	c0,7,5.7,12.6,12.6,12.6h36.3c1.2,0,2.3,0.9,2.5,2.1c4.3,21,12.6,40.6,24,58c0.7,1,0.5,2.4-0.3,3.2l-25.7,25.7
	c-4.9,4.9-4.9,12.9,0,17.9L77,543c2.4,2.4,5.6,3.7,8.9,3.7c5.3-3.9,9.5-5.6,9.5-5.6l2.4-0.9l22.8-22.8c0.9-0.9,2.2-1,3.2-0.3
	c4.3,2.8,8.7,6.5,13.2,8.9l44.3-16.8l0,0l0,0l0,0v-22.5c-46.1-14.3-80.6-57.2-80.6-108c0-62.4,50.6-113,113-113s113,50.6,113,113
	c0,51.7-35.8,95.3-83.2,108.8v21.7l47.3,17.9c5.3-2.7,10.4-6.8,15.4-10c1-0.7,2.4-0.5,3.2,0.3l25.7,25.7c4.9,4.9,12.9,4.9,17.9,0
	l26.3-26.3c4.9-4.9,4.9-12.9,0-17.9l-25.7-25.7c-0.9-0.9-1-2.2-0.3-3.2c11.5-17.3,19.7-36.9,24-58c0.2-1.2,1.3-2.1,2.5-2.1h36.3
	c7,0,12.6-5.7,12.6-12.6v-37.2C428.8,353.1,423.2,347.5,416.2,347.5z"/>
<g>
	<path class="st1" d="M21.8,397.3v-37.2c0-7,5.7-12.6,12.6-12.6H13.8c-7,0-12.6,5.7-12.6,12.6v37.2c0,7,5.7,12.6,12.6,12.6h20.6
		C27.5,409.9,21.8,404.3,21.8,397.3z"/>
	<path class="st1" d="M76.4,284.2c0.9,0.9,1,2.2,0.3,3.2c-11.4,17.3-19.7,36.9-24,58c-0.2,1.2-1.3,2.1-2.5,2.1h20.6
		c1.2,0,2.3-0.9,2.5-2.1c4.3-21.1,12.6-40.6,24-58c0.7-1,0.5-2.4-0.3-3.2l-25.7-25.7c-4.9-4.9-4.9-12.9,0-17.9l24.9-24.9l-1.4-1.4
		c-4.9-4.9-12.9-4.9-17.9,0l-26.3,26.3c-4.9,4.9-4.9,12.9,0,17.9L76.4,284.2z"/>
	<path class="st1" d="M71.3,516.7c-4.9-4.9-4.9-12.9,0-17.9L97,473.2c0.9-0.9,1-2.2,0.3-3.2c-11.4-17.3-19.7-36.9-24-58
		c-0.2-1.2-1.3-2.1-2.5-2.1H50.1c1.2,0,2.3,0.9,2.5,2.1c4.3,21,12.6,40.6,24,58c0.7,1,0.5,2.4-0.3,3.2l-25.7,25.7
		c-4.9,4.9-4.9,12.9,0,17.9L77,543c2.4,2.4,5.6,3.7,8.9,3.7c5.3-3.9,9.5-5.6,9.5-5.6l0.3-0.1L71.3,516.7z"/>
</g>
<path class="st2" d="M211.8,293.4c-42.5,0-77,34.5-77,77v30.5c5.1-4.8,12.5-7.4,19.6-6.4v-3.8c0-3,2.6-5.5,5.6-5.2
	c29.8,2.1,60.1-7.3,83-22.3c2.1-1.4,5-1.1,6.7,0.8c19.6,21.1,19.5,20.2,19.5,23v7.5c7.8-1.2,14.8,1.2,19.6,5.7v-29.8
	C288.8,327.8,254.3,293.4,211.8,293.4z"/>
<path class="st3" d="M155.5,370.4c0-39,29-71.2,66.7-76.3c-3.4-0.5-6.8-0.7-10.3-0.7c-42.5,0-77,34.5-77,77v30.5
	c5.1-4.8,12.5-7.4,19.6-6.4v-3.8c0-1.2,0.4-2.3,1.1-3.1L155.5,370.4L155.5,370.4z"/>
<g>
	<path class="st4" d="M268.2,391.4v42.2c0,0.5,0,0.9,0,1.4c14.9,2.3,26.6-8.5,26.6-21.8C294.7,399.9,283,389.1,268.2,391.4z"/>
	<path class="st4" d="M155.4,433.5v-42.2c-13-1.7-26.6,8.2-26.6,21.8c0,13.2,11.7,24,26.6,21.8C155.5,434.4,155.4,434,155.4,433.5z"
		/>
</g>
<g>
	<path class="st5" d="M286.8,396.3c-4.8-4-11.3-6-18.7-4.9v42.2c0,0.5,0,0.9,0,1.4c7.4,1.1,13.9-0.9,18.7-4.9V396.3z"/>
	<path class="st5" d="M155.4,430c-9.7-8-11.4-23.5,0-33v-5.6c-13-1.7-26.6,8.2-26.6,21.8c0,13.2,11.7,24,26.6,21.8
		c0-0.5,0-0.9,0-1.4V430z"/>
</g>
<path class="st4" d="M212.6,489.1c-12.4,0-23.4-3.4-32.3-9.1v30.2l32.2,39.7l32.2-39.7v-31.1C235.5,485.4,224.5,489.1,212.6,489.1z"
	/>
<path class="st5" d="M200.9,488c-7.7-1.4-14.6-4.2-20.6-8.1v30.2l20.6,25.4V488z"/>
<path class="st6" d="M329.8,541.1l-85.1-33l-32.2,39.7l-32.2-39.7l-85,33c0,0-31.5,12.9-31.5,48.8v79.6c0,4,3.3,7.3,7.3,7.3H354
	c4,0,7.3-3.3,7.3-7.3v-79.7C361.2,554,329.8,541.1,329.8,541.1z"/>
<path class="st7" d="M84.4,669.6v-88.9c0-24.6,14.8-38.4,24.1-44.7l-13.2,5.1c0,0-31.5,12.9-31.5,48.8v79.6c0,4,3.3,7.3,7.3,7.3
	h20.6C87.7,676.9,84.4,673.6,84.4,669.6z"/>
<path class="st8" d="M249.7,361.9c-1.7-1.9-4.6-2.2-6.7-0.8c-22.9,15-53.2,24.4-83,22.3c-3-0.2-5.6,2.2-5.6,5.2v46
	c0,29.6,23.2,56.6,58.2,56.6c31.2,0,56.6-25.4,56.6-56.6v-49.7C269.2,382.1,269.3,382.9,249.7,361.9z"/>
<path class="st4" d="M175,434.6v-51.1c-5,0.3-10,0.2-15-0.1c-3-0.2-5.6,2.2-5.6,5.2v46c0,29.6,23.2,56.6,58.2,56.6
	c3.2,0,6.4-0.3,9.5-0.8C195.4,485.8,175,462.5,175,434.6z"/>
<g>
	<path class="st7" d="M251.3,568.2l24.1-48.2l-30.7-11.9l-32.2,39.7l31.4,22.3C246.4,571.9,249.9,571,251.3,568.2z"/>
	<path class="st7" d="M173.7,568.2L149.6,520l30.7-11.9l32.2,39.7l-31.4,22.3C178.6,571.9,175.1,571,173.7,568.2z"/>
</g>
<path class="st9" d="M212.5,547.9L212.5,547.9L212.5,547.9L212.5,547.9L212.5,547.9l-22.9,16.2l10.8,16.2c8.7,0,15.4,0,24.1,0
	l10.8-16.2L212.5,547.9z"/>
<path class="st10" d="M184.1,676.9h56.8l-16.3-96.6c-8.7,0-15.4,0-24.1,0L184.1,676.9z"/>
<path class="st11" d="M223.9,556l-11.4-8.1v0l0,0l0,0v0l-22.8,16.2l10.8,16.2c8.4,0,14.9,0,22.8,0l-8.9-13.3
	c-1.1-1.6-0.7-3.8,0.9-4.9L223.9,556z"/>
<path class="st9" d="M200.4,580.3l-16.3,96.6h22.8l16.3-96.6C215.3,580.3,208.9,580.3,200.4,580.3z"/>
<g>
	<path class="st7" d="M125.1,676.9v-74.6c0-4.3-3.5-7.7-7.7-7.7s-7.7,3.5-7.7,7.7v74.6H125.1z"/>
	<path class="st7" d="M315.4,676.9v-74.6c0-4.3-3.5-7.7-7.7-7.7s-7.7,3.5-7.7,7.7v74.6H315.4z"/>
</g>
<path class="st1" d="M204.4,177.5c0-7,5.7-12.6,12.6-12.6h-20.6c-7,0-12.6,5.7-12.6,12.6v36.3c0,1.2-0.9,2.3-2.1,2.5l19.2-2.1
	c1.9-0.2,3.4-1.9,3.4-3.8L204.4,177.5L204.4,177.5z"/>
</svg>
