0 Mms [INFO] 02-25 14:53:29 p.m. MxStatusService, MxStatusService is on bind 
3 Mms [INFO] 02-25 14:53:29 p.m. MxStatusService, query mx status by remote service 
3 Mms [INFO] 02-25 14:53:29 p.m. MxStatusService, cache missed, query the status 
5667 Mms [INFO] 02-25 14:53:35 p.m. SmsReportService, runnable mErrorStartId is -1 
29797 Mms [INFO] 02-25 14:53:59 p.m. MxStatusService, MxStatusService is on Unbind 
29797 Mms [INFO] 02-25 14:53:59 p.m. MxStatusService, MxStatusService is on destroy 
