<?xml version="1.0" encoding="iso-8859-1"?>
<!-- Generator: Adobe Illustrator 19.0.0, SVG Export Plug-In . SVG Version: 6.00 Build 0)  -->
<svg version="1.1" id="Capa_1" xmlns="http://www.w3.org/2000/svg" xmlns:xlink="http://www.w3.org/1999/xlink" x="0px" y="0px"
	 viewBox="0 0 512 512" style="enable-background:new 0 0 512 512;" xml:space="preserve">
<path style="fill:#A4D9F5;" d="M467,512H362V181h135c8.284,0,15,6.716,15,15v271C512,491.853,491.853,512,467,512z"/>
<path style="fill:#CAE8F9;" d="M467,512H75c-41.4,0-75-33.6-75-75V15C0,6.599,6.599,0,15,0h392c8.401,0,15,6.599,15,15v452
	C422,491.899,442.099,512,467,512z"/>
<path style="fill:#B7E0F6;" d="M467,512H211V0h196c8.401,0,15,6.599,15,15v452C422,491.899,442.099,512,467,512z"/>
<path style="fill:#1689FC;" d="M151,271c-49.501,0-91,40.499-91,90v15c0,8.401,6.599,15,15,15h151c8.401,0,15-6.599,15-15v-15
	C241,311.499,200.501,271,151,271z"/>
<path style="fill:#136EF1;" d="M241,361v15c0,8.401-6.599,15-15,15h-75V271C200.501,271,241,311.499,241,361z"/>
<path style="fill:#18A7FC;" d="M151,181c-32.999,0-61,27.001-61,60s28.001,60,61,60s60-27.001,60-60S183.999,181,151,181z"/>
<path style="fill:#1689FC;" d="M211,241c0,32.999-27.001,60-60,60V181C183.999,181,211,208.001,211,241z"/>
<path style="fill:#4DBBEB;" d="M347,391h-61c-8.291,0-15-6.709-15-15s6.709-15,15-15h61c8.291,0,15,6.709,15,15S355.291,391,347,391
	z"/>
<path style="fill:#81C8EE;" d="M362,437c0,8.399-6.599,15-15,15H75c-8.401,0-15-6.601-15-15c0-8.401,6.599-15,15-15h272
	C355.401,422,362,428.599,362,437z"/>
<g>
	<path style="fill:#4DBBEB;" d="M347,211h-61c-8.291,0-15-6.709-15-15s6.709-15,15-15h61c8.291,0,15,6.709,15,15
		S355.291,211,347,211z"/>
	<path style="fill:#4DBBEB;" d="M347,271h-61c-8.291,0-15-6.709-15-15s6.709-15,15-15h61c8.291,0,15,6.709,15,15
		C362,264.291,355.291,271,347,271z"/>
	<path style="fill:#4DBBEB;" d="M347,331h-61c-8.291,0-15-6.709-15-15s6.709-15,15-15h61c8.291,0,15,6.709,15,15
		S355.291,331,347,331z"/>
</g>
<path style="fill:#1DE8F1;" d="M347,60H75c-8.401,0-15,6.599-15,15v61c0,8.399,6.599,15,15,15h272c8.401,0,15-6.601,15-15V75
	C362,66.599,355.401,60,347,60z"/>
<path style="fill:#4DBBEB;" d="M362,437c0,8.399-6.599,15-15,15H211v-30h136C355.401,422,362,428.599,362,437z"/>
<path style="fill:#1BD9DE;" d="M362,75v61c0,8.399-6.599,15-15,15H211V60h136C355.401,60,362,66.599,362,75z"/>
<g>
</g>
<g>
</g>
<g>
</g>
<g>
</g>
<g>
</g>
<g>
</g>
<g>
</g>
<g>
</g>
<g>
</g>
<g>
</g>
<g>
</g>
<g>
</g>
<g>
</g>
<g>
</g>
<g>
</g>
</svg>
