<?xml version="1.0" encoding="utf-8"?>
<!-- Generator: Adobe Illustrator 19.0.0, SVG Export Plug-In . SVG Version: 6.00 Build 0)  -->
<svg version="1.1" id="Layer_1" xmlns="http://www.w3.org/2000/svg" xmlns:xlink="http://www.w3.org/1999/xlink" x="0px" y="0px"
	 viewBox="-49 141 512 512" style="enable-background:new -49 141 512 512;" xml:space="preserve">
<style type="text/css">
	.st0{fill:#EFF2FA;}
	.st1{fill:#694B4B;}
	.st2{fill:#5A4146;}
	.st3{fill:#464655;}
	.st4{fill:#D29B6E;}
	.st5{fill:#5B5D6E;}
	.st6{fill:#59D8FF;}
	.st7{fill:#F0C087;}
	.st8{fill:#E6AF78;}
	.st9{fill:#707487;}
</style>
<path class="st0" d="M378.8,340.1c-55.9-7.2-103.9,33.1-109.4,86.1c-0.2,1.7-0.8,3.3-1.9,4.6l-28,33.6c-2.4,2.9-0.4,7.2,3.4,7.2
	h26.8c3.5,0,6.6,2.1,8.1,5.3c15.4,33.3,49,56.5,88.1,56.5c57.4,0,103.1-49.7,96.5-108.5C457.4,381.4,422.4,345.8,378.8,340.1z"/>
<path class="st1" d="M215.8,277.5h-88.3H39.3c-8.8,8.8-10.8,36.1-8.5,50.7l6,37.6h90.7h90.7l6-37.6
	C226.6,313.6,224.7,286.3,215.8,277.5z"/>
<path class="st2" d="M138.4,326.5l82.7-21c1.2-0.3,2.3-0.8,3.4-1.2c-1.1-11-3.8-21.8-8.8-26.7h-88.3H39.3
	c-8.8,8.8-10.8,36.1-8.5,50.7l6,37.6h90.7v-38C131.2,327.8,134.9,327.4,138.4,326.5z"/>
<path class="st3" d="M278.9,526l-64.6-19.5H41.2L-23.8,526c-14.9,4.5-25.2,18.2-25.2,33.8v35.5c0,9.8,7.9,17.7,17.7,17.7h317.8
	c9.8,0,17.7-7.9,17.7-17.7v-35.5C304.1,544.2,293.9,530.4,278.9,526z"/>
<polygon class="st4" points="189.3,445.2 189.3,494.5 127.6,544.9 65.8,494.5 65.8,445.2 "/>
<g>
	<path class="st5" d="M203.3,488.3c-2.8-4.2-8.6-5.2-12.6-2.2l-63.2,47.4l-63.2-47.4c-4.1-3-9.8-2.1-12.6,2.2L39.3,507L78,561.2
		c2.9,4.1,8.7,4.9,12.7,1.8l20.9-16.7c2.9-2.3,7.2-0.3,7.2,3.4V613h17.7v-63.2c0-3.7,4.3-5.8,7.2-3.4l20.9,16.7
		c4,3.2,9.8,2.4,12.7-1.8l38.7-54.2L203.3,488.3z"/>
	<path class="st5" d="M3.3,569.7l-41.9-34.8c-6.4,6.5-10.3,15.3-10.3,24.9v35.5c0,9.8,7.9,17.7,17.7,17.7h44.1v-22.9
		C12.8,582.2,9.3,574.7,3.3,569.7z"/>
	<path class="st5" d="M304.1,595.3v-35.5c0-9.6-3.9-18.5-10.4-25l-41.9,34.9c-6,5-9.5,12.5-9.5,20.3V613h44.1
		C296.2,613,304.1,605.1,304.1,595.3z"/>
</g>
<path class="st6" d="M365.9,507c-38.9,0-70.6-31.7-70.6-70.6s31.7-70.6,70.6-70.6s70.6,31.7,70.6,70.6c0,17.3-7.3,31-20.1,37.6
	c-10.4,5.4-23.2,4.9-31.7-1.2c-2.4-1.7-4.3-3.7-5.8-6c-1.8,1.4-3.7,2.6-5.7,3.7c-9.4,5.1-19.3,6.2-27.4,2.9
	c-7.9-3.2-13.8-9.5-16.5-17.6c-3.4-10-1.5-21.8,5.3-33.2c7.1-12.1,16.3-20.1,27.3-24c8.8-3.1,18.4-1.3,25.6,4.8
	c7.5,6.3,11.2,16.1,9.7,25.7l-1.8,11.5c0,0.1,0,0.2-0.1,0.3l-2.1,12.9c-0.3,2.1,0.2,3.5,1.8,4.6c2.7,1.9,8.2,2.5,13.4-0.1
	c6.8-3.5,10.5-11.2,10.5-21.8c0-29.3-23.8-53-53-53c-29.2,0-53,23.8-53,53c0,29.2,23.8,53,53,53c2.5,0,5.1-0.2,7.6-0.5
	c4.8-0.7,9.3,2.7,10,7.5c0.7,4.8-2.7,9.3-7.5,10C372.6,506.8,369.3,507,365.9,507z M370.5,414.8c-0.9,0-1.8,0.1-2.8,0.5
	c-7.1,2.5-12.9,7.8-17.9,16.3c-4.1,7-5.4,13.6-3.7,18.6c1.1,3.2,3.4,5.6,6.5,6.9c3,1.2,7.6,0.4,12.2-2.1
	c6.9-3.8,11.9-10.3,13.2-17.1l1.9-11.6c0.6-3.5-0.8-7-3.6-9.3C375.3,416.2,373.2,414.8,370.5,414.8z"/>
<path class="st7" d="M215.8,357h-10.4c-4.2,0-7.8-3-8.7-7.1l-4.6-22.8c-1.7-8.3-8.9-14.2-17.3-14.2H80.2c-8.4,0-15.7,5.9-17.3,14.2
	l-4.6,22.8c-0.8,4.1-4.4,7.1-8.7,7.1H39.3c-9.8,0-17.7,7.9-17.7,17.7v17.7c0,9.8,7.9,17.7,17.7,17.7h4.6l2.1,13.4
	c1.3,8.4,5.7,16.1,12.3,21.5l35.4,29.5c4.8,4,10.8,6.1,17,6.1h33.8c6.2,0,12.2-2.2,17-6.1l35.4-29.5c6.6-5.5,10.9-13.1,12.3-21.5
	l2.1-13.4h4.6c9.8,0,17.7-7.9,17.7-17.7v-17.7C233.5,364.9,225.6,357,215.8,357z"/>
<path class="st8" d="M101.1,419v-79.7c0-4.9,4-8.8,8.8-8.8h83l-0.7-3.5c-1.6-8.3-8.9-14.2-17.3-14.2H80.2c-8.4,0-15.7,5.9-17.3,14.2
	l-4.6,22.8c-0.8,4.1-4.4,7.1-8.7,7.1H39.3c-9.8,0-17.7,7.9-17.7,17.7v17.7c0,9.8,7.9,17.7,17.7,17.7h4.6l2.1,13.4
	c1.3,8.4,5.7,16.1,12.3,21.5l35.4,29.5c4.8,4,10.8,6.1,17,6.1h8.1l-14.9-44.8C102,430.3,101.1,424.7,101.1,419z"/>
<rect x="260" y="215.7" class="st3" width="17.7" height="79.4"/>
<path class="st5" d="M40.7,224.5l-9,53.8c-0.8,4.5,2.1,8.9,6.5,10l82.7,21c4.3,1.1,8.8,1.1,13,0l82.7-21c4.4-1.1,7.3-5.5,6.5-10
	l-9-53.8H40.7L40.7,224.5z"/>
<path class="st3" d="M134.7,267.7l84.2-16.1l0,0l-4.5-27.1H40.7l-9,53.8c-0.8,4.5,2.1,8.9,6.5,10l82.7,21c2.1,0.5,4.3,0.8,6.5,0.8
	v-33.8C127.6,272.1,130.6,268.5,134.7,267.7z"/>
<path class="st9" d="M121,181.7l-157.7,30c-4.4,0.8-4.4,7.2,0,8l157.7,30c4.4,0.8,8.8,0.8,13.2,0l157.7-30c4.4-0.8,4.4-7.2,0-8
	l-157.7-30C129.9,180.8,125.4,180.8,121,181.7z"/>
<path class="st5" d="M268.8,286.3L268.8,286.3c-9.8,0-17.7,7.9-17.7,17.7v26.5c0,4.9,4,8.8,8.8,8.8h17.7c4.9,0,8.8-4,8.8-8.8V304
	C286.4,294.2,278.5,286.3,268.8,286.3z"/>
</svg>
